﻿[
    {
        "_id":"c-1000",
        "_parentId":"b-100",
        "_type":"component",
        "_component": "graphic",
        "_classes": "",
        "_layout": "full",
        "title": "Çapraz Cihaz Davranışı",
        "displayTitle": "",
        "body": "İnternete bağlı kalma ihtiyacının günlük yaşamın ayrılmaz bir parçası haline gelmesiyle, tabletler ve dizüstü bilgisayarlarla beraber akıllı telefonların da kullanımı giderek yaygınlaşıyor. İnsanlar bilgileri ve ürünleri keşfetmek için birden fazla cihaz kullandığından, reklam stratejilerinin de değişerek bunlara ayak uydurması gerekiyor. İşletmeler, insanların ürünlere olan ilgilerini gösterirken izlediği yeni yolları anlamak zorunda.",
        "instruction": "",
        "_pageLevelProgress": {
            "_isEnabled": true
        },
        "_graphic": {
            "alt": "alternatif metin",
            "src": "course/en/images/01_introduction/devices.png"
    }
    },
    {
        "_id":"c-1010",
        "_parentId":"b-101",
        "_type":"component",
        "_component":"text",
        "_classes":"",
        "_layout":"full",
        "title":"",
        "displayTitle":"",
        "body":"Facebook uygulama ve hizmetler ailesi; internette, mağazalarda ve mobil uygulamalarda eylemleri artırmanıza yardımcı olmak için, en değerli hedef kitlenizle bağlantı kurmanızı sağlayabilir.",
        "instruction":"",
        "_pageLevelProgress": {
            "_isEnabled": false
        }
    },
    {
        "_id":"c-1020",
        "_parentId":"b-102",
        "_type":"component",
        "_component":"animate-message",
        "_classes":"",
        "_layout":"full",
        "title":"",
        "displayTitle":"",
        "body":"",
        "instruction":"",
        "titleAnimation":"transition.slideRightIn",
        "bodyAnimation":"transition.slideLeftIn",
        "backgroundColor":"#ffffff,#ffffff,#ffffff",
        "_spacing":"20px",
        "_pageLevelProgress": {
        "_isEnabled": false
        },
        "_items": [
        {
            "item_title": "",
            "body":"<br><img src='course/en/images/01_introduction/facebook.png' style='float:left;width:100px;height:100px;padding-right:10px;'><div style='min-height:283;'' ><b>Facebook</b>’u her ay 1,86 milyar, her gün 1,23 milyar insan kullanıyor.<sup>1</sup></div>"
        }
      ]
    },
    {
        "_id":"c-1025",
        "_parentId":"b-103",
        "_type":"component",
        "_component":"animate-message",
        "_classes":"",
        "_layout":"full",
        "title":"",
        "displayTitle":"",
        "body":"",
        "instruction":"",
        "titleAnimation":"transition.slideRightIn",
        "bodyAnimation":"transition.slideLeftIn",
        "backgroundColor":"#ffffff,#ffffff,#ffffff",
        "_spacing":"20px",
        "_pageLevelProgress": {
        "_isEnabled": false
        },
        "_items": [
        {
            "item_title": "",
            "body":"<br><img src='course/en/images/01_introduction/instagram.png' style='float:left;width:100px;height:100px;padding-right:10px;'><div style='min-height:283;'' ><b>Instagram</b>’da aylık 600 milyon, günlük 400 milyon aktif kullanıcı bulunuyor.<sup>1</sup></div>"
        }
      ]
    },
    {
        "_id":"c-1030",
        "_parentId":"b-104",
        "_type":"component",
        "_component":"animate-message",
        "_classes":"",
        "_layout":"full",
        "title":"",
        "displayTitle":"",
        "body":"",
        "instruction":"",
        "titleAnimation":"transition.slideRightIn",
        "bodyAnimation":"transition.slideLeftIn",
        "backgroundColor":"#ffffff,#ffffff,#ffffff",
        "_spacing":"20px",
        "_pageLevelProgress": {
        "_isEnabled": false
        },
        "_items": [
        {
            "item_title": "",
            "body":"<br><img src='course/en/images/01_introduction/audience_network.png' style='float:left;width:100px;height:100px;padding-right:10px;'><div style='min-height:283;'' > Her ay 1 milyardan fazla insan <b>Audience Network</b> üzerinden bir reklam görüyor.<sup>2</sup></div>"
        }
      ]
    },
    {
        "_id":"c-1998",
        "_parentId":"b-198",
        "_type":"component",
        "_component":"text",
        "_classes":"",
        "_layout":"full",
        "title":"",
        "displayTitle":"",
        "body":"Daha fazla bilgi almak ister misiniz? Bu kursta, Facebook reklamlarınızla istediğiniz eylemleri en iyi şekilde elde etmenize yardımcı olacak tavsiyelerimizden oluşan kontrol listemizi adım adım inceleyeceğiz:<br><br><ul><li>İşletmenizin hedeflerini belirleyin.</li><li>Facebook pikselini, SDK’yi veya çevrimdışı dönüşümler API’sini kullanıma alın.</li><li>Bir satın alma türü seçin.</li><li>İşletme hedeflerinize en uygun reklam verme amacını belirleyin.</li><li>Hedef kitlelerinizi ve onlara nasıl erişeceğinizi tanımlayın.</li><li>Mevcut reklam alanları ve formatları arasından seçimlerinizi yapın.</li><li>Kampanyanızın farklı cihazlardaki ve platformlardaki performansını ölçün.</li></ul><hr><cite><sup>1</sup>4. Çeyrek Facebook Kazanç görüşmesi, Şubat 2017<br><sup>2</sup>25 Mayıs 2016 - 23 Haziran 20016 tarihleri arasında dünya genelinde en az bir reklam gösterimi alan tekil kişilere dayalı Facebook verileri</cite></hr>",
        "instruction":"",
        "_isComplete": false,
        "_pageLevelProgress": {
            "_isEnabled": false
        }
    },
    {
            "_id":"c-1999",
            "_parentId":"b-199",
            "_type":"component",
            "_component":"co-jump",
            "_classes":"color-test",
            "_preLinkBody":"Sıradaki konumuz olan Facebook reklamlarını",
            "_linkBody":"Kullanmaya Başlama",
            "_postLinkBody":" ile devam edelim.",
            "_link":"#/id/co-02",
            "_graphic":"adapt/css/assets/icon_nextPage.png",
            "_pageLevelProgress": {
                "_isEnabled": false
            }
    },
    {
        "_id":"c-2000",
        "_parentId":"b-200",
        "_type":"component",
        "_component":"animate-message",
        "_classes": {"border-radius":"0px"},
        "_layout":"full",
        "title":"",
        "displayTitle":"",
        "body":"Facebook kampanyanızı planlamaya kendinize birkaç soru sorarak başlayın.",
        "instruction":"",
        "titleAnimation":"transition.slideRightIn",
        "bodyAnimation":"transition.slideRightIn",
        "backgroundColor":"#86aefd,#86aefd,#86aefd,#86aefd",
        "_cornerRadius":"0px",
        "_pageLevelProgress": {
            "_isEnabled": false
        },
        "_disableAnimation":true,
        "_items": [
        {
            "item_title": "",
            "body":"<div style='padding:20px;'><b>İşletme hedeflerim neler?</b><br><br>Reklam verme amaçlarımızdan hangilerinin hedeflerinize uygun olduğunu belirleyin. Markanızın veya ürünlerinizin bilinirliğini artırmak istiyorsanız Marka Bilinirliği reklam verme amacımızı kullanabilirsiniz. İşletme hedefiniz yeni müşteriler kazanmaksa, Potansiyel Müşteriler Bulma reklam verme amacımızı kullanabilirsiniz.</div>"
        },
        {
            "item_title": "",
            "body":"<div style='padding:20px;'><b>Hedef kitlem kim?</b><br><br>Doğru gruplara doğru içeriği iletebilmek için, reklamlarınızın mevcut hedef kitlelerinizden birini mi (ör. mevcut müşterileriniz) yoksa yeni bir hedef kitleyi mi (ör. en iyi müşterilerinize benzer insanlar) hedefleyeceğini belirleyin.</div>"
        },
        {
            "item_title": "",
            "body":"<div style='padding:20px;'><b>Sonuçları nasıl ölçeceğim ve takip edeceğim?</b><br><br>Ana performans göstergelerinizi (KPI’lar) veya işletmeniz için önemli olan ölçümleri tanımlayın. Örneğin, reklamınızın sonucunda internet sitenizden alışveriş yapan kişi sayısını veya toplam alışveriş tutarını ölçmeyi seçebilirsiniz. Bu, ihtiyaçlarınız için en iyi ölçüm çözümünü belirlemenize yardımcı olur.</div>"
      }
      ]
      },
      {
        "_id":"c-2010",
        "_parentId":"b-200",
        "_type":"component",
        "_component":"text",
        "_classes":"",
        "_layout":"full",
        "title":"",
        "displayTitle":"",
        "body":"Bu soruların yanıtları genel stratejinizi tanımlayacak ve diğer pazarlama kanallarının yanında Facebook, Instagram ve Audience Network’teki kampanyalarınızın etkisini ölçmenize yardımcı olacaktır.",
        "instruction":"",
        "_isComplete": false,
        "_pageLevelProgress": {
            "_isEnabled": false
        }
    },
    {
        "_id":"c-2015",
        "_parentId":"b-201",
        "_type":"component",
        "_component":"text",
        "_classes":"",
        "_layout":"full",
        "title":"Zorunlu olmayan ama tavsiye edilen adımlar",
        "displayTitle":"Zorunlu olmayan ama tavsiye edilen adımlar",
        "body":"<h2>Facebook pikselini ve/veya SDK’yi kullanıma alın</h2>En iyi hedef kitle, markanızı zaten tanıyan kişilerden oluşur. Bu insanlar internet sitenizi ziyaret eden, mobil uygulamanızı yüklemiş ve başlatmış veya ürünlerinizi ya da hizmetlerinizi satın almış kişilerdir.<br><br>Bu eylemleri takip etmek için Facebook pikselini ve Facebook SDK’sini kullanmanızı tavsiye ediyoruz.<br><br>Piksel ve SDK, internet sitenize ve mobil uygulamanıza eklenen kod parçalarıdır ve reklam kampanyanız için ölçüm, optimizasyon ve hedef kitle oluşturma işlemleri gerçekleştirmenizi sağlar. İkisini birden yüklemeniz gerekmez ancak çapraz cihaz davranışını ölçebilmeniz için piksel ve SDK birlikte daha iyi çalışabilir.",
        "instruction":"",
        "_isComplete": false,
        "_pageLevelProgress": {
            "_isEnabled": true
        }
    },
    {
        "_id":"c-2020",
        "_parentId":"b-202",
        "_type":"component",
        "_component": "graphic",
        "_classes": "",
        "_layout": "left",
        "title": "",
        "displayTitle": "",
        "body": "",
        "instruction": "",
        "_pageLevelProgress": {
            "_isEnabled": false
        },
        "_graphic": {
            "alt": "alternatif metin",
            "src": "course/en/images/02_started/pixel.png"
    }
    },
    {  
        "_id":"c-2025",
        "_parentId":"b-202",
        "_type":"component",
        "_component":"text",
        "_classes":"",
        "_layout":"right",
        "title":"",
        "displayTitle":"",
        "body":"Piksel ve SDK sayesinde:<br><br><ul><li><i>Reklamlarınızın yayınını, eylemde bulunma olasılığı en yüksek kişilere göre optimize edin.</i><br>Reklamlarınızın, alışveriş veya form doldurma gibi, istediğiniz eylemleri gerçekleştirme olasılığı en yüksek kişiler tarafından görüldüğünden emin olun.</li><br><li><i>Sitenizi ziyaret eden kişilere daha sonra tekrar erişebilmek için otomatik olarak hedef kitleler oluşturun.</i><br>İnternet sitenizde bir ürün sayfasını ziyaret etmek gibi belirli eylemlerde bulunan kişileri yeniden hedefleyebilmek ve onlara ilgilerini çekecek reklamları otomatik olarak gösterebilmek için Özel Hedef Kitleler oluşturun.</li><br><li><i>Çapraz cihaz dönüşümlerini ölçün.</i><br>Müşterilerinizin alışveriş gibi bir eylem gerçekleştirmeden önce cihazlar arasında nasıl geçiş yaptığını görün.</li></ul>",
        "instruction":"",
        "_isComplete": false,
        "_pageLevelProgress": {
            "_isEnabled": false
        }
    },
    {
        "_id":"c-2030",
        "_parentId":"b-205",
        "_type":"component",
        "_component":"text",
        "_classes":"",
        "_layout":"left",
        "title":"",
        "displayTitle":"",
        "body":"<h2>Sıfırdan başlamayın. Elinizdeki içerik ve verileri inceleyin.</h2><ul><li>Önceden oluşturulmuş videolar veya fotoğraflar gibi <i>kreatif içerikleriniz</i> var mı? Reklamınızın hangi cihazda gösterildiğinden bağımsız olarak, aynı içerikleri yeniden boyutlandırmanıza veya biçimlendirmenize gerek kalmadan uygulamalar ve hizmetler ailemizin tamamında yayınlayabilirsiniz. Bu, Facebook’ta kullandığınız görselin ve videonun aynısını Instagram’da veya Instagram’da kullandığınızın aynısını Facebook’ta kullanabileceğiniz anlamına gelir.<br></li><br><li>Mevcut müşterilerinizle ilgili e-posta adresleri veya CRM verileri gibi <i>müşteri verilerine</i> sahip misiniz? Reklamlarınızla doğru insanları hedeflemenize yardımcı olması için, bu verileri Özel Hedef Kitleler gibi hedefleme seçeneklerimizle kullanabilirsiniz.</li><br><li>Envanterinizin tamamını içeren bir <i>ürün kataloğunuz</i> var mı? İnsanların internet sitenizde veya uygulamanızda ziyaret ettiği ürünlere dayalı olarak, ilgilerini çekecek reklamlar oluşturup bunları Facebook’ta doğru zamanda göstermek için dinamik reklamlar çözümümüzü kullanabilirsiniz. Dinamik reklamlar sayesinde, reklamları ayrı ayrı yapılandırmak zorunda kalmadan tüm ürünlerinizin tanıtımını yapabilirsiniz.</li></ul>",
        "instruction":"",
        "_isComplete": false,
        "_pageLevelProgress": {
            "_isEnabled": false
        }
    },
    {
        "_id":"c-2035",
        "_parentId":"b-205",
        "_type":"component",
        "_component": "graphic",
        "_classes": "",
        "_layout": "right",
        "title": "",
        "displayTitle": "",
        "body": "",
        "instruction": "",
        "_pageLevelProgress": {
            "_isEnabled": false
        },
        "_graphic": {
            "alt": "alternatif metin",
            "src": "course/en/images/02_started/assets.png"
    }
    },
    {  
        "_id":"c-2045",
        "_parentId":"b-206",
        "_type":"component",
        "_component": "graphic",
        "_classes": "",
        "_layout": "left",
        "title": "",
        "displayTitle": "",
        "body": "",
        "instruction": "",
        "_pageLevelProgress": {
            "_isEnabled": false
        },
        "_graphic": {
            "alt": "alternatif metin",
            "src": "course/en/images/02_started/locations.jpeg"
    }
    },
    {  
        "_id":"c-2050",
        "_parentId":"b-206",
        "_type":"component",
        "_component":"text",
        "_classes":"",
        "_layout":"right",
        "title":"",
        "displayTitle":"",
        "body":"<ul><li>Birden fazla <i>mağaza konumunuz</i> mu var? Tüm konumlarınızın bir listesini oluşturun ve Sayfanızda <a href='https://www.facebook.com/business/help/174184552932540' target='new'>Facebook Konumlar</a> özelliğini kullanmaya başlamak için Business Manager’a yükleyin. Böylece, tüm mağazalarınız için mağaza trafiğini ve çevrimdışı satışları artırmanıza yardımcı olabilecek Mağaza Ziyaretleri reklam verme amacını kullanarak reklamlar oluşturabilirsiniz.</li></ul>",
        "instruction":"",
        "_isComplete": false,
        "_pageLevelProgress": {
            "_isEnabled": false
        }
    },
    {
        "_id":"c-2055",
        "_parentId":"b-210",
        "_type":"component",
        "_component":"text",
        "_classes":"",
        "_layout":"full",
        "title":"",
        "displayTitle":"",
        "body":"<b>Tavsiye edilen kurslar</b><br><ul><li><i>Mobil SDK</li><li>İnternet Sitesi Dönüşümleri</li><li>Facebook Pikselini Kullanarak Kampanyalarınız İçin Ölçüm, Optimizasyon ve Hedef Kitle Oluşturma</i></li></ul>",
        "instruction":"",
        "_isComplete": false,
        "_pageLevelProgress": {
            "_isEnabled": false
        }
    },
    {
            "_id":"c-2099",
            "_parentId":"b-249",
            "_type":"component",
            "_component":"co-jump",
            "_classes":"color-test",
            "_preLinkBody":"Artık stratejinizi nasıl belirleyeceğinizi biliyorsunuz. Sıradaki konumuz ",
            "_linkBody":"Reklam Satın Alma Türlerine Genel Bakış",
            "_postLinkBody":".",
            "_link":"#/id/co-03",
            "_graphic":"adapt/css/assets/icon_nextPage.png",
            "_pageLevelProgress": {
                "_isEnabled": false
            }
    },

        {
        "_id":"c-2500",
        "_parentId":"b-250",
        "_type":"component",
        "_component":"text",
        "_classes":"",
        "_layout":"full",
        "title":"",
        "displayTitle":"",
        "body":"Seçtiğiniz satın alma türü reklamlarınız için nasıl ödeme ve hedefleme yapacağınızı belirler. Üç satın alma seçeneğini inceleyeceğiz: açık artırma, erişim ve sıklık, TRP satın alma.",
        "instruction":"",
        "_isComplete": false,
        "_pageLevelProgress": {
            "_isEnabled": false
        }
    },
    {
        "_id":"c-2505",
        "_parentId":"b-250",
        "_type":"component", 
        "_component":"text",
        "_classes":"",
        "_layout":"full",
        "title":"Açık Artırma",
        "displayTitle":"Açık Artırma",
        "body":"Facebook reklam açık artırması iki unsuru dengelemeye çalışır:<br><br><ol><li>Hedef kitlelerindeki kişilere erişip onlardan istedikleri sonuçları elde etmelerine yardımcı olarak reklamverenler için değer yaratmak</li><li>Facebook, Instagram veya Audience Network’ü kullanan insanlara olumlu ve kendileriyle alakalı deneyimler sunmak</li></ol><br>Bunu yapmamızın en iyi yolu, her iki tarafın da temsil edildiği bir açık artırma gerçekleştirmektir. Bu sayede, reklamverenler yayınladıkları reklamlara yanıt verebilecek kişilere erişirken, bu kişiler de ilgilendikleri bir şeyler görebilir. Bu, geleneksel bir açık artırmadan farklıdır çünkü en yüksek parasal teklifi veren reklam değil, en fazla toplam değeri yaratan reklam kazanır. Bir açık artırmayı kazanan ve gösterilen reklam, toplam değeri en yüksek olan reklamdır. Toplam değer, bir reklamverenin reklamını göstermek için bize ödemek istediği en yüksek tutar değildir. Şu üç faktörün bir araya gelmesiyle oluşur:<br><br><p align='center'><b>REKLAMVERENİN TEKLİFİ</b> <img src='course/en/images/03_buying/x.png'/> <b>TAHMİNİ EYLEM ORANLARI</b> <img src='course/en/images/03_buying/plus.png'/> <b>ALAKA DÜZEYİ VE KALİTE</b> <img src='course/en/images/03_buying/equals.png'/> <b>TOPLAM DEĞER</b></p><br><br><ul><li>Reklamveren teklifi (manuel veya otomatik teklif)</li><li>Tahmini eylem oranları (istenen bir sonucu elde etme olasılığı)</li><li>Alaka düzeyi ve kalite (internet sitesi performansı, reklam kalitesi, reklamınızın hedef kitlenizle alaka düzeyi)</li></ul>",
        "instruction":"",
        "_isComplete": false,
        "_pageLevelProgress": {
            "_isEnabled": true
        }
    },
    {
        "_id":"c-2508",
        "_parentId":"b-251",
        "_type":"component",
        "_component":"text",
        "_classes":"",
        "_layout":"right",
        "title":"",
        "displayTitle":"",
        "body":"Bir açık artırma gerçekleştiğinde, farklı optimizasyon hedeflerini hesaba katmak için yukarıdaki faktörleri standardize ederiz ve tek bir toplam değerde bir araya getiririz. En yüksek toplam değere sahip reklam kazanır ve gösterilir. Bu ne anlama gelir? <i>Yüksek kaliteli</i> ve <i>alaka düzeyi çok yüksek</i> olan bir reklam, reklamvereninin bütçesi daha yüksek olmasına rağmen kalitesi ve alaka düzeyi düşük olan bir reklamı geride bırakabilir.<br><br>Facebook’taki reklamlarınızdan en yüksek verimi alabilmek için, tüm faktörleri en üst düzeye çıkarmanız gerekir. Ödeyebileceğiniz en yüksek teklifi yapın, ilgi çekici reklamlar oluşturun ve doğru hedef kitleyi seçin. Bu sayede reklamınızı daha fazla göstererek reklamınız ve reklamınızın hedef kitlesi hakkında olabildiğince fazla bilgi edinebilir ve reklamınızı daha verimli ve etkili bir biçimde yayınlayabiliriz.",
        "instruction":"",
        "_isComplete": false,
        "_pageLevelProgress": {
            "_isEnabled": false
        }
    },
    {
        "_id":"c-2509",
        "_parentId":"b-251",
        "_type":"component",       
        "_component": "graphic",
        "_classes": "",
        "_layout": "left",
        "title": "",
        "displayTitle": "",
        "body": "",
        "instruction": "",
        "_pageLevelProgress": {
            "_isEnabled": false
        },
        "_graphic": {
            "alt": "alternatif metin",
            "src": "course/en/images/03_buying/auction.png"
    }
    },
    {   
        "_id":"c-2525",
        "_parentId":"b-252",
        "_type":"component",
        "_component":"text",
        "_classes":"",
        "_layout":"full",
        "title":"Açık artırma için ipuçları",
        "displayTitle":"Açık artırma için ipuçları",
        "body":"<h2>Doğru teklifi belirleyin</h2>Açık artırma yöntemini kullanmanız durumunda teklif vermek için iki seçeneğiniz olduğunu göreceksiniz: Otomatik ve manuel.<br><br><i>Otomatik teklif</i> seçeneğinde açık artırma sistemimiz, teklifinizi istediğiniz eylemin bütçeniz dahilinde mümkün olan en yüksek sayıda gerçekleştirilmesini sağlamak üzere ayarlar. Optimizasyon yaptığınız sonuç için aklınızda belirli bir değer yoksa, otomatik teklifi kullanmayı göz önünde bulundurun.<br><br><img src='course/en/images/03_buying/bidding.png'/><br><br><i>Manuel teklif</i> seçeneğinde, istenen eylemin değerine siz karar verirsiniz. Optimize ettiğiniz eyleme ne kadar değer verdiğinizi gösteren bir teklifle başlayın. Daha düşük teklifler, hedef kitleniz içinde reklamınızı gören kişi sayısını düşürebilir. Örneğin, internet sitesi dönüşümleri veya mobil uygulama yüklemeleri için optimizasyon yapıyorsanız ve manuel bir teklif belirtmek istiyorsanız, bir “ortalama” teklif veya “maksimum” teklif belirlemeyi seçebilirsiniz.<br><br><img src='course/en/images/03_buying/bidding2.png'/><br><br>Bir ortalama ücret sınırı dahilinde yayını ve dönüşüm hacmini en üst düzeye çıkarmak istiyorsanız, ortalama ücret teklifini kullanmanızı tavsiye ederiz. Optimizasyon gerçekleştirdiğiniz her bir sonucun belirli bir tutardan yüksek olmamasını istiyorsanız, maksimum ücret teklifini kullanmanızı tavsiye ederiz.",
        "instruction":"",
        "_isComplete": false,
        "_pageLevelProgress": {
            "_isEnabled": true
        }
    },
    {
        "_id":"c-2529",
        "_parentId":"b-254",
        "_type":"component",
        "_component":"text",
        "_classes":"",
        "_layout":"full",
        "title":"",
        "displayTitle":"",
        "body":"<h2>Doğru bütçeyi belirleyin</h2>Sorunsuz yayın için her bir reklam seti için günlük bütçenizin teklifinizden yüksek olması gerekir. İstediğiniz sonuç hacmine ulaşamıyorsanız, teklifinizi yükseltmeyi deneyin. Daha büyük bir bütçe, daha küçük bir bütçeye kıyasla Facebook’un hedef kitleleri ararken daha agresif davranmasına olanak sağlar. Toplam bütçenizi aynı hedef kitleye yönelik çok sayıda reklam setine bölmek yerine, mümkünse her hedef kitle için tek bir reklam seti oluşturacak şekilde birleştirmenizi tavsiye ederiz. Bu, yeterince yayınlanmama sorunlarını giderirken sorunların hedef kitle büyüklüğünden mi yoksa diğer faktörlerden mi kaynaklandığını belirlemenizi de kolaylaştırır.",
        "instruction":"",
        "_isComplete": false,
        "_pageLevelProgress": {
            "_isEnabled": false
        }
    },
    {
        "_id":"c-2530",
        "_parentId":"b-255",
        "_type":"component",       
        "_component": "graphic",
        "_classes": "",
        "_layout": "left",
        "title": "",
        "displayTitle": "",
        "body": "",
        "instruction": "",
        "_pageLevelProgress": {
            "_isEnabled": false
        },
        "_graphic": {
            "alt": "alternatif metin",
            "src": "course/en/images/03_buying/conversion.png"
    }
    },
    { 
        "_id":"c-2535",
        "_parentId":"b-255",
        "_type":"component",
        "_component":"text",
        "_classes":"",
        "_layout":"right",
        "title":"",
        "displayTitle":"",
        "body":"Dönüşüm optimizasyonunu kullanırken, yani reklam yayınınızı önemsediğiniz sonuçlar için optimize ederken, reklam seti bütçeniz teklifinizden kat kat yüksek olmalıdır. Dönüşüm optimizasyonu modelinin yayını garanti etmek veya bütçenizin tamamını harcamak üzerine kurulu <i>olmadığını</i> unutmayın. Dönüşüm optimizasyonu size belirli bir bütçe için en düşük ücret karşılığında en yüksek sayıda dönüşümü sağlar. Teklifinize eşit veya daha düşük bir ücretle, dönüşüm gerçekleştirme olasılığının yüksek olduğunu tahmin ettiğimiz kişilere gösterim yapmaya çalışırız. Bu, sürekli reklam yayınlayan bir kampanya için ödeyeceğiniz ortalama ücretin genellikle teklifinizden daha düşük olacağı anlamına gelir.",
        "instruction":"",
        "_isComplete": false,
        "_pageLevelProgress": {
            "_isEnabled": false
        }
    },
    {
        "_id":"c-2540",
        "_parentId":"b-256",
        "_type":"component",
        "_component":"text",
        "_classes":"",
        "_layout":"full",
        "title":"",
        "displayTitle":"",
        "body":"<h2>Test edin ve değişiklikler yapın</h2>Reklam açık artırması, dinamik bir pazar yeridir. En iyi kampanya performansı ve yayın, test etmeyi ve değişiklik yapmayı gerektirir. Bununla birlikte, değişikliklerinizi yaparken reklam açık artırma sistemimizin değişiklikleri uygulamasının biraz zaman aldığını aklınızda bulundurun. Daha fazla değişiklik yapmadan önce sisteme yayınınızı güncellemesi için zaman tanıyın.",
        "instruction":"",
        "_isComplete": false,
        "_pageLevelProgress": {
            "_isEnabled": false
        }
    },
    {
        "_id":"c-2560",
        "_parentId":"b-257",
        "_type":"component",       
        "_component": "graphic",
        "_classes": "",
        "_layout": "full",
        "title": "Erişim ve sıklık",
        "displayTitle": "Erişim ve sıklık",
        "body": "Başarılı marka kampanyaları yürütebilmek için hedef kitlenize mesajınızı ulaştırabilecek kadar sık erişmeniz gerekir. Erişim ve Sıklık satın alma,<sup>*</sup> tahmin edilebilir erişim ve kontrollü sıklık sayesinde kampanyalarınızı doğru şekilde planlama ve yayınlama imkanı sunar.<br><br>Bu satın alma seçeneği insanların reklamlarınızı hangi sırada göreceğini de kontrol etmenize olanak sağlar. Sıralama aracına, reklamlarınızı oluşturduktan sonra kampanyanızın reklam setinde erişebilirsiniz. Markanızın veya ürününüzün günün belirli saatlerinde kullanıcılar için alaka düzeyi daha yüksekse, reklamlarınızın onlara en etkili zamanlarda veya en etkili sırada da erişmesini sağlayabilirsiniz.",
        "instruction": "",
        "_pageLevelProgress": {
            "_isEnabled": true
        },
        "_graphic": {
            "alt": "alternatif metin",
            "src": "course/en/images/03_buying/rf_graph.png"
    }
    },
    {  
        "_id":"c-2565",
        "_parentId":"b-257",
        "_type":"component",
        "_component":"text",
        "_classes":"",
        "_layout":"full",
        "title":"",
        "displayTitle":"",
        "body":"<cite><sup>*</sup>Erişim ve Sıklık satın alma, 200.000 kişinin üzerindeki hedef kitlelere erişirken reklam yayınınız üzerinde tahmin ve kontrol imkanı sunar.</sup></cite><br><br>Aşağıdaki örnekte, otomobil şirketi Akemia West hedef kitlelerinin ilk olarak yeni bir otomobil modelini tanıttığı reklamı görmelerini istiyordu. Bir kişi bu ilk reklamı gördükten sonra şirketin ikinci reklamı yeni otomobilin özelliklerini gösterecek, takip eden üçüncü reklam da otomobilin ekstra özelliklerini vurgulayacaktı.",
        "instruction":"",
        "_isComplete": false,
        "_pageLevelProgress": {
            "_isEnabled": false
        }
    },
    {
        "_id":"c-2570",
        "_parentId":"b-257",
        "_type":"component",
        "_component": "graphic",
        "_classes": "",
        "_layout": "full",
        "title": "",
        "displayTitle": "",
        "body": "",
        "instruction": "",
        "_pageLevelProgress": {
            "_isEnabled": false
        },
        "_graphic": {
            "alt": "alternatif metin",
            "src": "course/en/images/03_buying/akemia.png"
    }
    },
    {  
        "_id":"c-2580",
        "_parentId":"b-260",
        "_type":"component",
        "_component":"canvas-animation",
        "_classes":"",
        "_layout":"full",
        "title":"TRP Satın Alma",
        "displayTitle":"TRP Satın Alma",
        "animationName":"TestAnimation",
        "animation":"course/en/animations/nielsen/testAnimation.js",
        "body":"Video reklamlarında, TV alıcıları Facebook ve Instagram’da Hedef Rating Oranları (TRP) satın alarak TV kampanyalarını genişletebilir ve tamamlayabilir. TRP Satın Alma, Nielsen tarafından isabeti doğrulanan TRP’lerde tahmin edilebilir yayın imkanı sunar.<sup>*</sup><div id='TestAnimation'></div>",
        "_resources": {
            "leftImage":"course/en/animations/nielsen/tv_campaign.png",
            "centerImage":"course/en/animations/nielsen/extend_reach.png",
            "rightImage":"course/en/animations/nielsen/nielsen.png",
            "leftText":"TV Kampanyanız",
            "centerText":"Facebook ve Instagram video reklamları ile erişimi artırın",
            "rightText":"Nielsen tarafından\ndoğrulanmış TRP’ler"
        },
        "instruction":"",
        "_pageLevelProgress": {
        "_isEnabled": true
        }
    },
    {
        "_id":"c-2585",
        "_parentId":"b-260",
        "_type":"component",
        "_component":"text",
        "_classes":"",
        "_layout":"full",
        "title":"",
        "displayTitle":"",
        "body":"TRP’ler gösterimleri bir reklam kampanyasının hedef popülasyonunun yüzdesi olarak ölçer ve TV reklamlarının satın alınması ve ölçülmesinde temel bir özelliktir. TV reklamları satın alan kişiler, Facebook ve Instagram videolarını kolay ve öngörülebilir biçimde satın alıp Nielsen demografik hedef kitlelerine göre garantili yayın elde etmek için bu planlama ve satın alma seçeneğini kullanabilir.<hr><cite><sup>*</sup> Sadece Avustralya, Brezilya, Kanada, Fransa, Almanya, Endonezya, İtalya, Meksika, Filipinler, Tayland, Birleşik Krallık ve ABD’deki Nielsen pazarlarına hedeflenen reklamlar için kullanılabilir.</cite><br><br><br><b>Tavsiye edilen kurslar</b><br><ul><li><i>Reklam Açık Artırması ve Yayınına Genel Bakış</li><li>Facebook’ta Erişim ve Sıklık Satın Alma</li><li>Kampanya Planlayıcı ile Erişim ve Sıklık Kampanyaları Planlama</li><li>Facebook ve TV</i></li></ul>",
        "instruction":"",
        "_isComplete": false,
        "_pageLevelProgress": {
            "_isEnabled": false
        }
    },
    {
            "_id":"c-2590",
            "_parentId":"b-299",
            "_type":"component",
            "_component":"co-jump",
            "_classes":"color-test",
            "_preLinkBody":"Kampanya oluşturma sürecinde sıradaki adım: ",
            "_linkBody":"Doğru Reklam Verme Amacını Seçme",
            "_postLinkBody":".",
            "_link":"#/id/co-04",
            "_graphic":"adapt/css/assets/icon_nextPage.png",
            "_pageLevelProgress": {
                "_isEnabled": false
            }
    },
    {
        "_id":"c-3000",
        "_parentId":"b-300",
        "_type":"component",
        "_component": "text",
        "_classes": "",
        "_layout": "full",
        "title": "Pazarlama Hunisi",
        "displayTitle": "",
        "body": "Kampanya planlaması sırasında işletme hedeflerinizi belirlemeniz gerektiğinden bahsetmiştik. Şimdi bu hedefleri reklam verme amaçlarımızla eşleştireceğiz.<br><br>Örneğin, hedefiniz işletmenizi büyütmekse tüketici yolculuğunun sol yarısına odaklanmanız gerekir: Bilinirlik, talep oluşturma ve müşteri kazanma. Fakat hedefiniz kârlılıksa, sağ yarısına odaklanmalısınız.<br><br><table><td style='padding:10px;'><p align='center'><img src='course/en/images/04_objectives/awareness.png'></p></td><td style='padding:10px;'><p align='center'><img src=' course/en/images/04_objectives/demand_gen.png'></p></td><td style='padding:10px;'><p align='center'><img src=' course/en/images/04_objectives/acquisition.png'></p></td><td style='padding:10px;'><p align='center'><img src=' course/en/images/04_objectives/transaction.png'></p></td><th colspan='4' style='padding:10px;'></th></tr><tr><th style='padding:10px; vertical-align:middle;'><div style='color:#4080FF; font-weight: bold; font-size: 20px'>Bilinirlik</div></th><th style='padding:10px; vertical-align:middle;'> <div style='color:#4080FF; font-weight: bold; font-size: 20px'>Talep oluşturma</div></th><th style='padding:10px; vertical-align:middle;'><div style='color:#4080FF; font-weight: bold; font-size: 20px'>Müşteri kazanma</div></th><th style='padding:10px; vertical-align:middle;'><div style='color:#4080FF; font-weight: bold; font-size: 20px'>İşlem</div></th>",
        "instruction":"",
        "_isComplete": false,
        "_pageLevelProgress": {
            "_isEnabled": false
        }
    },
    { 
        "_id":"c-3005",
        "_parentId":"b-301",
        "_type":"component",
        "_component":"text",
        "_classes":"",
        "_layout":"full",
        "title":"Reklam Verme Amaçları",
        "displayTitle":"Reklam Verme Amaçları",
        "body":"Huninin her bir kısmı için tavsiye edilen reklam verme amaçlarını aşağıda görebilirsiniz. Yıldız (*) işaretli reklam verme amaçlarının hem açık artırma hem de erişim ve sıklık satın alma türleriyle kullanılabildiğine dikkat edin. Diğer reklam verme amaçları sadece açık artırma satın alma türüyle kullanılabilir.",
        "instruction":"",
        "_isComplete": false,
        "_pageLevelProgress": {
            "_isEnabled": true
        }
    },
    {
        "_id":"c-3010",
        "_parentId":"b-302",
        "_type":"component",
        "_component":"text",
        "_classes":"",
        "_layout":"left",
        "title":"",
        "displayTitle":"",
        "body":"<i>Hedefiniz <b>bilinirlik kazanmaksa</b>, aşağıdaki reklam verme amaçlarını kullanmalısınız:</i><br><ul><li>Marka Bilinirliği<sup>*</sup></li><li>Erişim<sup>*</sup></li></ul>",
        "instruction":"",
        "_isComplete": false,
        "_pageLevelProgress": {
            "_isEnabled": false
        }
    },
    {
        "_id":"c-3015",
        "_parentId":"b-302",
        "_type":"component",
        "_component":"text",
        "_classes":"",
        "_layout":"right",
        "title":"",
        "displayTitle":"",
        "body":"<i>Hedefiniz <b>talep oluşturmaksa</b>, aşağıdaki reklam verme amaçlarını kullanmalısınız:</i><br><ul><li>Trafik<sup>*</sup></li><li>Etkileşim – Etkinlik Yanıtları</li><li>Video Görüntülemeleri<sup>*</sup></li><li>Yerel Bilinirlik</li></ul>",
        "instruction":"",
        "_isComplete": false,
        "_pageLevelProgress": {
            "_isEnabled": false
        }
    },
    {
        "_id":"c-3020",
        "_parentId":"b-303",
        "_type":"component",
        "_component":"text",
        "_classes":"",
        "_layout":"left",
        "title":"",
        "displayTitle":"",
        "body":"<i>Hedefiniz <b>müşteri kazanmaksa</b>, aşağıdaki reklam verme amaçlarını kullanmalısınız:</i><br><ul><li>Potansiyel Müşteriler Bulma</li><li>Dönüşümler – İnternet Sitesi<sup>*</sup></li><li>Uygulama Yüklemeleri<sup>*</sup></li></ul>",
        "instruction":"",
        "_isComplete": false,
        "_pageLevelProgress": {
            "_isEnabled": false
        }
    },
    {
        "_id":"c-3025",
        "_parentId":"b-303",
        "_type":"component",
        "_component":"text",
        "_classes":"",
        "_layout":"right",
        "title":"",
        "displayTitle":"",
        "body":"<i>Hedefiniz <b>işlemleri artırmaksa</b>, aşağıdaki reklam verme amaçlarını kullanmalısınız:</i><ul><li>Etkileşim – Teklif Alımları</li><li>Dönüşümler – Uygulama</li><li>Ürün Kataloğu Satışları</li><li>Mağaza Ziyaretleri</li></ul>",
        "instruction":"",
        "_isComplete": false,
        "_pageLevelProgress": {
            "_isEnabled": false
        }
    },
    {
            "_id":"c-3990",
            "_parentId":"b-399",
            "_type":"component",
            "_component":"co-jump",
            "_classes":"color-test",
            "_preLinkBody":"Şimdi ",
            "_linkBody":"Doğru Kişileri Hedefleme",
            "_postLinkBody":" konusuyla reklamlarınızın kimlere gösterileceğini belirleme aşamasını inceleyelim.",
            "_link":"#/id/co-05",
            "_graphic":"adapt/css/assets/icon_nextPage.png",
            "_pageLevelProgress": {
                "_isEnabled": false
            }
    },
    {
        "_id":"c-4000",
        "_parentId":"b-400",
        "_type":"component",
        "_component":"text",
        "_classes":"",
        "_layout":"full",
        "title":"",
        "displayTitle":"",
        "body":"Doğru hedefleme stratejisiyle, tüm cihazlarda sonuçlarınızı artırmak için Facebook, Instagram ve Audience Network’te daha fazla kişiye erişebilirsiniz.<br><br><img src='course/en/images/05_targeting/audience.png'/><br><br><br>İşletmeniz için belirlediğiniz hedefi ve bu hedefe doğru ilerlemek için erişmeniz gereken insanları düşünün. Yeni müşteriler mi istiyorsunuz? Mevcut müşterilerinize yeniden pazarlama mı yapmak istiyorsunuz? Sonra kendinize aşağıdaki soruları sorun:<br><br><i><ul><li>Hedef kitlelerimdeki kişiler kim?</li><li>Hedef kitlemi nasıl segmentlere bölebilirim? Bu kişilerle ilgili elimde hangi tür veri veya istatistikler var?</li><li>Şu anki ve gelecekteki temel odak pazarlarım hangileri?</li><li>CRM veritabanımı kim yönetiyor? Şu anda veritabanımı pazarlama amaçları doğrultusunda nasıl kullanıyorum?</li><li>Diğer kampanyalarda hedefleme için hangi çevrimdışı verileri kullanıyorum?</li></ul></i><br><br>Bu sorular, erişmek istediğiniz hedef kitleleri belirlemenize yardımcı olacaktır. İşletmeniz için en büyük önemi taşıyan bu kişilere de aşağıdaki hedefleme seçeneklerini izleyerek erişebilirsiniz.",
        "instruction":"",
        "_isComplete": false,
        "_pageLevelProgress": {
            "_isEnabled": false
        }
    },
    {
        "_id":"c-4010",
        "_parentId":"b-401",
        "_type":"component",
        "_component":"text",
        "_classes":"",
        "_layout":"left",
        "title":"Temel Hedef Kitleler",
        "displayTitle":"Temel Hedef Kitleler",
        "body":"İnsanların Facebook’ta paylaştığı konum, demografik bilgiler, ilgi alanları ve davranışlar gibi bilgilere dayalı olarak bir hedef kitle oluşturun. Temel Hedef Kitleler, işletme hedeflerinizle bağlantılı ilgi alanlarına sahip geniş bir hedef kitleye erişmenize yardımcı olur.",
        "instruction":"",
        "_isComplete": false,
        "_pageLevelProgress": {
            "_isEnabled": true
        }
    },
    {
        "_id":"c-4015",
        "_parentId":"b-401",
        "_type":"component",   
        "_component": "graphic",
        "_classes": "",
        "_layout": "right",
        "title": "",
        "displayTitle": "",
        "body": "",
        "instruction": "",
        "_pageLevelProgress": {
            "_isEnabled": false
        },
        "_graphic": {
            "alt": "alternatif metin",
            "src": "course/en/images/05_targeting/core.png"
    }
    },
    {  
        "_id":"c-4020",
        "_parentId":"b-404",
        "_type":"component",  
        "_component":"text",
        "_classes":"",
        "_layout":"full",
        "title":"Özel Hedef Kitleler",
        "displayTitle":"Özel Hedef Kitleler",
        "body":"Özel Hedef Kitleler, en değerli hedef kitlelerinizle bağlantı kurmanıza olanak tanır. Mevcut müşterilere ve potansiyel müşterilere erişmek için önemli bir hedefleme özelliğidir. Özel Hedef Kitleleri güçlendirmek için çeşitli veri kaynakları kullanılabilir: CRM verileri, Facebook pikseli veya Facebook SDK.<br><br>Özel Hedef Kitlelerinizden en yüksek verimi almanıza yardımcı olacak ipuçlarını aşağıda görebilirsiniz. <i>Oklara tıklayarak daha fazla bilgi almak için içerikler arasında gezinebilirsiniz.</i>",
        "instruction":"",
        "_isComplete": false,
        "_pageLevelProgress": {
            "_isEnabled": true
        }
    },
    {
        "_id":"c-4100",
        "_parentId":"b-405",
        "_type":"component",  
        "_component":"text",
        "_classes":"",
        "_layout":"full",
        "title":"",
        "displayTitle":"",
        "body":"<h2>Özel Hedef Kitle segmentlerinizi mevcut hedef kitle segmentasyonunuza göre şekillendirin.</h2><br>Özel Hedef Kitleler, müşterileriniz içindeki belirli bir kitleye hedeflendiğinde en iyi performansı gösterir. Elinizdeki müşteri bilgilerini kullanın (ör. sürekli müşteriler veya sepetindekileri satın almadan bırakanlar) ve deneyimi kişiselleştirmek ve eylemde bulunmayı teşvik etmek için mesajları özelleştirin.",
        "instruction":"",
        "_isComplete": false,
        "_pageLevelProgress": {
            "_isEnabled": false
        }
    },
    {
        "_id":"c-4101",
        "_parentId":"b-406",
        "_type":"component",  
        "_component":"text",
        "_classes":"",
        "_layout":"full",
        "title":"",
        "displayTitle":"",
        "body":"<h2>Müşterilerinizin hunideki yerini göz önünde bulundurarak Özel Hedef Kitle segmentleri oluşturun.</h2><br>Özel Hedef Kitleler, hedef kitlenizin markanızı ne kadar tanıdığına ve alışveriş hunisindeki yerine bağlı olarak pazarlama stratejinizi ayarlama fırsatı sunar. Özel Kombinasyonlar ile, kurallar oluşturup ek özelleştirmeler ekleyerek sadece belirli sayfaları ziyaret eden kişileri dahil edebilirsiniz. Hedef kitleleri; ziyaret edilen sayfalar, geçirilen süre, ziyaret sıklığı, kullanılan cihaz gibi özelliklere göre segmentlere ayırın.",
        "instruction":"",
        "_isComplete": false,
        "_pageLevelProgress": {
            "_isEnabled": false
        }
    },
    {
        "_id":"c-4102",
        "_parentId":"b-407",
        "_type":"component",  
        "_component":"text",
        "_classes":"",
        "_layout":"full",
        "title":"",
        "displayTitle":"",
        "body":"<h2>Etkileşim Özel Hedef Kitlelerini Kullanın</h2><br>Bir videoyu izleyen, bir Kanvas reklamıyla etkileşimde bulunan veya bir potansiyel müşteri reklam formunuzu doldurmaya başlayan kişileri belirleyip bu kişilere erişin.",
        "instruction":"",
        "_isComplete": false,
        "_pageLevelProgress": {
            "_isEnabled": false
        }
    },
    {
        "_id":"c-4103",
        "_parentId":"b-408",
        "_type":"component",  
        "_component":"text",
        "_classes":"",
        "_layout":"full",
        "title":"",
        "displayTitle":"",
        "body":"<h2>E-posta veya doğrudan posta kampanyalarınızı tamamlayın</h2><br>Diğer dijital ve basılı reklamlarınızı tamamlamak için e-posta veya doğrudan posta listenizden oluşturduğunuz Özel Hedef Kitleleri kullanın. Örneğin, e-postalarını açmayan müşterilere erişebilir veya doğrudan posta mesajınızı Facebook’ta güçlendirerek etkisini artırabilirsiniz.",
        "instruction":"",
        "_isComplete": false,
        "_pageLevelProgress": {
            "_isEnabled": false
        }
    },
    {
        "_id":"c-4104",
        "_parentId":"b-409",
        "_type":"component",  
        "_component":"text",
        "_classes":"",
        "_layout":"full",
        "title":"",
        "displayTitle":"",
        "body":"<h2>Arama kampanyanızı geliştirin.</h2><br>Müşterileriniz sizi aramadan <i>önce</i> siz onları bulun. İnternet sitenizden veya uygulamanızdan Özel Hedef Kitleleri kullanarak, müşterilerin satın alma niyetini önceden, müşteriler sizi henüz tanımaya başlamışken keşfederek arama harcamasını en üst seviyeye taşıyın.",
        "instruction":"",
        "_isComplete": false,
        "_pageLevelProgress": {
            "_isEnabled": false
        }
    },
    {
        "_id":"c-4105",
        "_parentId":"b-410",
        "_type":"component",  
        "_component":"text",
        "_classes":"",
        "_layout":"full",
        "title":"",
        "displayTitle":"",
        "body":"<h2>Satın alma niyeti gösteren müşterileri hedefleyin</h2><br>İnternet sitenize Facebook pikselini ve/veya mobil uygulamanız için Facebook SDK’yi ekleyerek müşteri niyeti hakkında bilgi edinin. Bu veriler sayesinde insanları internet sitenizdeki veya mobil uygulamanızdaki belirli eylemlerine göre hedefleyebilir ve onlara Facebook üzerinden erişebilirsiniz. Hedef kitleleri; ziyaret edilen sayfalar, geçirilen süre, ziyaret sıklığı, kullanılan cihaz gibi özelliklere göre segmentlere ayırabilirsiniz. Alışveriş sepetindeki ürünleri satın almadan bırakan kişilere, alışverişi tamamlamak için dönmeye teşvik edecek mesajlarla yeniden pazarlama yapabilirsiniz. Değeri daha da artırmak için, yakın zamanda internet üzerinden veya uygulamanızdan alışveriş yapmış kişilere çapraz satış veya üst ürün satışı yapabilirsiniz.",
        "instruction":"",
        "_isComplete": false,
        "_pageLevelProgress": {
            "_isEnabled": false
        }
    },
    {
        "_id":"c-4109",
        "_parentId":"b-411",
        "_type":"component",  
        "_component":"text",
        "_classes":"",
        "_layout":"full",
        "title":"",
        "displayTitle":"",
        "body":"<h2>Müşterileri farklı cihazlarda hedefleyin</h2><br>Facebook insanlara birden fazla cihaz üzerinden erişebilir, bu da dönüşümleri artırmanıza yardımcı olabilir. Müşterinin sizi ne kadar tanıdığına bağlı olarak doğru mesajı doğru kişilere doğru cihazda gönderdiğinizden emin olmak için çapraz cihaz dönüşümlerini göz önünde bulundurun.<br><br>Örneğin, müşterilerinizin sitede daha çok dönüşüm sağlama olasılığının yüksek olduğunu biliyorsanız, internette net eylem çağrılarıyla hedefleme yapın. Çapraz cihaz dönüşümlerinizi, Facebook reklam raporlarında çapraz cihaz görünümünü etkinleştirerek görebilirsiniz.",
        "instruction":"",
        "_isComplete": false,
        "_pageLevelProgress": {
            "_isEnabled": false
        }
    },
    {
        "_id":"c-4110",
        "_parentId":"b-412",
        "_type":"component",  
        "_component":"text",
        "_classes":"",
        "_layout":"full",
        "title":"",
        "displayTitle":"",
        "body":"<h2>Özel Hedef Kitlenizi oluşturmak için kaliteli veriler kullanın</h2><br>Bir veri dosyasından Özel Hedef Kitleleri kullanırken yüksek kaliteli verilerle çalışırsanız (ör. eksiksiz e-posta adresleri, daha güncel veriler) Facebook’taki insanlarla daha yüksek eşleşme oranı yakalarsınız.",
        "instruction":"",
        "_isComplete": false,
        "_pageLevelProgress": {
            "_isEnabled": false
        }
    },
    {
        "_id":"c-4111",
        "_parentId":"b-413",
        "_type":"component", 
        "_component":"text",
        "_classes":"",
        "_layout":"full",
        "title":"Benzer Hedef Kitleler",
        "displayTitle":"Benzer Hedef Kitleler",
        "body":"Benzer hedef kitleler, işletmenize ilgi göstermiş müşterilerle benzer özelliklere sahip yeni insanlara erişmenize olanak sağlar. Bunu yapmak için bir kaynak hedef kitle (ör. internet sitenizden Özel Hedef Kitle), benzer hedef kitleniz için ülke veya bölge ve hedef kitle büyüklüğü seçersiniz. <br><br>Benzer hedef kitlelerden en yüksek verimi almanıza yardımcı olacak ipuçlarını aşağıda görebilirsiniz. <i>Oklara tıklayarak daha fazla bilgi almak için içerikler arasında gezinebilirsiniz.</i>",
        "instruction":"",
        "_isComplete": false,
        "_pageLevelProgress": {
            "_isEnabled": true
        }
    },
    {
        "_id":"c-4112",
        "_parentId":"b-414",
        "_type":"component", 
        "_component":"text",
        "_classes":"",
        "_layout":"full",
        "title":"",
        "displayTitle":"",
        "body":"<h2>İnternet sitenizi ziyaret eden kişileri hedefleyin.</h2><br>Bir Facebook pikselinden elde edeceğiniz verileri kullanarak; yüksek alışveriş niyeti ifade etmiş, yakınlarda internet sitenizi ziyaret etmiş veya sitenizde dönüşüm gerçekleştirmiş kişilere benzeyen insanları bulabilir ve satışları artırabilirsiniz.",
        "instruction":"",
        "_isComplete": false,
        "_pageLevelProgress": {
            "_isEnabled": false
        }
    },
    {
        "_id":"c-4114",
        "_parentId":"b-415",
        "_type":"component", 
        "_component":"text",
        "_classes":"",
        "_layout":"full",
        "title":"",
        "displayTitle":"",
        "body":"<h2>Belirli kaynak listeler kullanın.</h2><br>Elde etmek istediğiniz işletme hedefine yönelik kaynak listeler (çevrimdışı yerine çevrimiçi dönüşüme eğilimli kişiler gibi) kullanın ve onlara benzeyen kişileri bulun.",
        "instruction":"",
        "_isComplete": false,
        "_pageLevelProgress": {
            "_isEnabled": false
        }
    },
    {
        "_id":"c-4116",
        "_parentId":"b-416",
        "_type":"component", 
        "_component":"text",
        "_classes":"",
        "_layout":"full",
        "title":"",
        "displayTitle":"",
        "body":"<h2>Mevcut müşteri listelerini kullanın.</h2><br>Yeni kullanıcılara erişmek için mevcut müşterilerin özelliklerine bakarak benzer hedef kitleniz için listenizi oluşturun.",
        "instruction":"",
        "_isComplete": false,
        "_pageLevelProgress": {
            "_isEnabled": false
        }
    },
    {
        "_id":"c-4118",
        "_parentId":"b-417",
        "_type":"component", 
        "_component":"text",
        "_classes":"",
        "_layout":"full",
        "title":"",
        "displayTitle":"",
        "body":"<h2>Benzerlik için optimizasyon yapın.</h2><br>Reklamınızın daha hassas eşleşmeyle nasıl performans gösterdiğini anlamak için, Hedef Kitle Büyüklüğü kaydırıcısını kullanarak benzer hedef kitlenizi benzerlik için optimize edin. Performansa göre hedeflemenizi daraltmayı ve benzerlik için daha az, erişim için daha fazla optimizasyon yapmayı seçebilirsiniz. Unutmayın: %1’lik kısım benzerlik için ve en üst %5’lik kısım erişim için optimize edilir.",
        "instruction":"",
        "_isComplete": false,
        "_pageLevelProgress": {
            "_isEnabled": false
        }
    },
    {
        "_id":"c-4120",
        "_parentId":"b-418",
        "_type":"component",
        "_component":"text",
        "_classes":"",
        "_layout":"full",
        "title":"",
        "displayTitle":"",
        "body":"<h2>Instagram’da Hedefleme Yapma</h2><br>Instagram’ın toplam hedef kitlesi Facebook’unkinden daha küçüktür. Geniş bir hedef kitleyle başlayın ve zamanla hangi hedef kitlelerin dönüşüm gerçekleştirdiğini öğrendikçe hedef kitlenizi daraltın. Örneğin, %5 veya %10’luk bir benzer hedef kitle ile başlayabilir ve sistem önem verdiğiniz sonuçları sağlamayı öğrendikçe hedef kitleyi %1’e daraltabilirsiniz.",
        "instruction":"",
        "_isComplete": false,
        "_pageLevelProgress": {
            "_isEnabled": false
        }
    },
    {
        "_id":"c-4130",
        "_parentId":"b-419",
        "_type":"component",
        "_component":"text",
        "_classes":"",
        "_layout":"full",
        "title":"Genel hedefleme ipuçları",
        "displayTitle":"Genel hedefleme ipuçları",
        "body":"<h2>Doğru hedef kitleyi seçin</h2>Hedef kitleyi çok fazla kısıtlamayın, aksi takdirde hedef kitle çok küçük olur. Reklam Oluşturma Aracındaki tahmini erişim sayıları, hedef kitlenizin çok geniş veya dar olup olmadığını belirlemenize yardımcı olur.<br><br>Marka bilinirliği reklamları için geniş bir hedef kitle, doğrudan pazarlama içinse daha belirli bir hedef kitle kullanın. Reklamınız istediğiniz sıklıkta yayınlanmıyorsa, hedef kitleyi büyütmek sorunu çözebilir.<br><hr><h2>Hedef kitle çakışmalarına dikkat edin</h2>Hedef kitle çakışması, birden fazla reklam setinin aynı kişilerden oluşan hedef kitlelere yayınlanmasını ifade eder. Hedef kitlelerinizin çakışması her zaman kötü bir şey olmayabilir, ancak reklam setlerinizin yeterince yayınlanmamasına yol açabilir. Reklam açık artırması, kısa bir süre içinde aynı kişiye tek bir reklamverenden çok fazla reklam gösterilmesini engellemeye çalışır. Dolayısıyla hedef kitle çakışması, bazı reklam setlerinin neden tam bütçelerine ulaşmadığını açıklayabilir.<br><br><a href='https://www.facebook.com/business/help/1679591828938781' target='new'>Hedef Kitle Çakışması aracımızı</a> kullanarak iki hedef kitleniz arasında çakışma olup olmadığını görebilirsiniz.<br><br><img src='course/en/images/05_targeting/audience_overlap.png'/><br><br>Hedef kitle çalışması olduğunu belirlerseniz, aşağıdakileri yapmanızı tavsiye ederiz:<br><br><ul><li>Çakışan reklam setlerinizi birleştirin. Bazı reklam setleri birbirine çok benzer hedef kitleleri hedefliyorsa, bunları daha büyük bir bütçeyle tek bir reklam setinde birleştirerek daha iyi sonuçlar alabilirsiniz.</li><li>Hedeflemenizi daraltın. Her reklam setinin belirli ve birbirinden farklı bir hedef kitleye sahip olmasını sağlamak için konuma, yaşa, cinsiyete, ilgi alanına ve/veya davranışa dayalı hedeflemeden faydalanın. Her reklam seti için ayrı Özel Hedef Kitleler ve benzer hedef kitleler oluşturmayı da deneyebilirsiniz.</li></ul><br><hr><h2>Reklamınızın alaka düzeyi puanını yükseltin</h2>Alaka düzeyi puanınız, reklamınızın erişmek istediğiniz insanlar arasında ne kadar yankı bulduğunu tahmin eder. Reklamınız çok fazla olumlu görüş (ör. insanların reklamınıza tıklaması) almıyorsa veya olumsuz görüş (ör. insanların reklamınızı gizlemesi) alıyorsa, alaka düzeyi puanınız düşük olur. Bu durum, yayını olumsuz etkiliyor olabilir.<br><br>Reklamınızın alaka düzeyi puanı düşük olduğunda, diğer reklamverenlerin reklamlarına kıyasla hedef kitlenize gösterilme olasılığı daha düşük olur. Bu durumda, reklamlarınızın doğru hedef kitleye erişmesi için hedeflemenizde değişiklik yapmanızı tavsiye ederiz.<br><br>Alaka düzeyi puanlarınızı Reklam Yöneticisi’nde ve Power Editor’da reklam düzeyinde bulabilirsiniz. Kampanyalar ve reklam setleri için alaka düzeyi puanları mevcut değildir.",
        "instruction":"",
        "_isComplete": false,
        "_pageLevelProgress": {
            "_isEnabled": true
        }
    },
    {
            "_id":"c-4990",
            "_parentId":"b-499",
            "_type":"component",
            "_component":"co-jump",
            "_classes":"color-test",
            "_preLinkBody":"Seçtiğiniz reklam verme amacına göre reklamlarınız için kullanabileceğiniz seçenekleri, sıradaki ",
            "_linkBody":"Reklam Alanlarını, Formatları ve Kreatifi Seçme",
            "_postLinkBody":" bölümünde inceleyeceğiz.",
            "_link":"#/id/co-06",
            "_graphic":"adapt/css/assets/icon_nextPage.png",
            "_pageLevelProgress": {
                "_isEnabled": false
            }
    },
    {
        "_id":"c-5000",
        "_parentId":"b-500",
        "_type":"component",
        "_component":"text",
        "_classes":"",
        "_layout":"full",
        "title":"",
        "displayTitle":"",
        "body":"Facebook Haber Kaynağınızda bir video reklamı gördüğünüzde, bir reklamın <i>reklam alanını</i> (Facebook Haber Kaynağı) ve <i>formatını</i> (video) görmüş olursunuz. Reklam alanları reklamlarınızın görüneceği <i>yerler</i>, formatlar da reklamlarınızın <i>nasıl</i> görüneceğidir. Kreatif ise reklamınızda kullanacağınız belirli bir video dosyası veya görsel gibi medya türüdür. Şimdi üçünü de inceleyelim.",
        "instruction":"",
        "_pageLevelProgress": {
            "_isEnabled": false
        }
    },
    {
        "_id":"c-5010",
        "_parentId":"b-501",
        "_type":"component",
        "_component":"text",
        "_classes":"",
        "_layout":"full",
        "title":"Reklam alanları",
        "displayTitle":"Reklam alanları",
        "body":"Facebook uygulama ve hizmetler ailesinde çok sayıda reklam alanı vardır:<br><br><ul><li>Facebook<ul><li>Akışlar <i>(mobil ve site)</i></li><li>Hızlı Makaleler <i>(sadece mobil)</i><li>Yayın İçi Videolar <i>(mobil ve site)</i></li><li>Sağ sütun <i>(sadece site)</i></li></ul></li><li>Instagram <i>(sadece mobil)</i></li><li>Audience Network <i>(mobil ve site)</i></li><li>Messenger <i>(mobil ve site)</i></li></ul>",
        "instruction":"",
        "_isComplete": false,
        "_pageLevelProgress": {
            "_isEnabled": true
        }
    },
    {
        "_id":"c-5020",
        "_parentId":"b-501",
        "_type":"component",       
        "_component": "graphic",
        "_classes": "",
        "_layout": "full",
        "title": "",
        "displayTitle": "",
        "body": "",
        "instruction": "",
        "_pageLevelProgress": {
            "_isEnabled": false
        },
        "_graphic": {
            "alt": "alternatif metin",
            "src": "course/en/images/06_placements/platforms.png"
    }
    },
    {  
        "_id":"c-5030",
        "_parentId":"b-501",
        "_type":"component",
        "_component":"text",
        "_classes":"",
        "_layout":"full",
        "title":"",
        "displayTitle":"",
        "instruction":"",
        "body":"Kampanyanızda kullanabileceğiniz reklam alanlarının, seçeceğiniz reklam verme amacına bağlı olduğunu unutmayın. Bu da her kampanyanın yukarıda listelenen reklam alanlarının hepsine uygun olmadığı anlamına gelir. Örneğin, marka bilinirliği reklam verme amacını kullandığınızda reklamlarınızı Facebook ve Instagram’da yayınlayabilirsiniz. Ancak, mobil uygulama yüklemeleri reklam verme amacını seçerseniz, reklamlarınızı Facebook, Instagram ve Audience Network’te yayınlayabilirsiniz.<br><br>Mümkün olduğunda, kullanılabilir tüm reklam alanlarını seçmenizi tavsiye ederiz. Bu, tüm platformlarda ve cihazlarda hedef kitlelerinize erişmeniz için size daha fazla fırsat sunar ve biz de reklamlarınızın yayınını reklam verme amacınız ve bütçenize göre optimize ederiz. Bu, aynı reklam seti bütçesiyle istediğiniz sonucu daha fazla sayıda elde etmenize yardımcı olur.",
        "_isComplete": false,
        "_pageLevelProgress": {
            "_isEnabled": false
        }
    },
    {
        "_id":"c-5031",
        "_parentId":"b-502",
        "_type":"component",
        "_component":"text",
        "_classes":"",
        "_layout":"full",
        "title":"Formatlar ve kreatif",
        "displayTitle":"Formatlar ve kreatif",
        "instruction":"",
        "body":"Reklam verme amacınız, kullanabileceğiniz reklam alanlarını belirlediği gibi kullanabileceğiniz reklam formatlarını da belirler:<br><br><ul><li>Tek Görsel</li><li>Döngü</li><li>Tek Video</li><li>Slayt Gösterisi</li><li>Kanvas</li></ul>",
        "_isComplete": false,
        "_pageLevelProgress": {
            "_isEnabled": true
        }
    },
    {
        "_id":"c-5035",
        "_parentId":"b-504",
        "_type":"component",
        "_component": "graphic",
        "_classes": "",
        "_layout": "left",
        "title": "",
        "displayTitle": "",
        "body": "",
        "instruction": "",
        "_pageLevelProgress": {
            "_isEnabled": false
        },
        "_graphic": {
            "alt": "alternatif metin",
            "src": "course/en/images/06_placements/image.png"
        }
    },
    {
        "_id":"c-5040",
        "_parentId":"b-504",
        "_type":"component",
        "_component":"text",
        "_classes":"",
        "_layout":"right",
        "title":"Tek Görsel",
        "displayTitle":"",
        "instruction":"",
        "body":"<h2>Tek Görsel</h2>Tek bir çarpıcı görselle bir reklam oluşturun.<br><br><i>Kreatif</i><br><ul><li>İnternet sitenizdeki ürünlere bakmış kişileri hedeflerken ürünlerin görsellerini kullanın.</li><li>Potansiyel müşterilere gerçek hayattan görsellerle erişin.</li><li>Ürün görselleri veya gerçek hayattan görseller gibi farklı kreatif stratejilerini test ederek sizin için en çok hangisinin işe yaradığını görün.</li></ul>",
        "_isComplete": false,
        "_pageLevelProgress": {
            "_isEnabled": true
    }
    },
    {
        "_id":"c-5045",
        "_parentId":"b-505",
        "_type":"component",
        "_component": "graphic",
        "_classes": "",
        "_layout": "right",
        "title": "",
        "displayTitle": "",
        "body": "",
        "instruction": "",
        "_pageLevelProgress": {
            "_isEnabled": false
        },
        "_graphic": {
            "alt": "alternatif metin",
            "src": "course/en/images/06_placements/carousel.png"
        }
    },
    {
        "_id":"c-5050",
        "_parentId":"b-505",
        "_type":"component",
        "_component":"text",
        "_classes":"",
        "_layout":"left",
        "title":"Döngü",
        "displayTitle":"",
        "instruction":"",
        "body":"<h2>Döngü</h2>2 ila 10 tıklanabilir görsel veya video* kullanarak oluşturacağınız bir reklam size daha fazla kreatif alanı sunar.<br><br><i>Kreatif</i><br><ul><li>Dönen reklamınızdaki görsellere yönelik bir tema oluşturun.</li><li>Potansiyel müşterilere gerçek hayattan görsellerle erişin.</li><li>Hikaye anlatma, ürün görselleri veya gerçek hayattan görseller gibi farklı kreatif stratejilerini test ederek reklam verme amacınız için en çok hangisinin işe yaradığını görün.</li></ul><br><cite><sup>*</sup>Tüm reklam verme amaçları döngü içinde videoları desteklemez.</cite>",
        "_isComplete": false,
        "_pageLevelProgress": {
            "_isEnabled": true
        }
    },
    { 
        "_id":"c-5055",
        "_parentId":"b-506",
        "_type":"component",
        "_component": "graphic",
        "_classes": "",
        "_layout": "left",
        "title": "",
        "displayTitle": "",
        "body": "",
        "instruction": "",
        "_pageLevelProgress": {
            "_isEnabled": false
        },
        "_graphic": {
            "alt": "alternatif metin",
            "src": "course/en/images/06_placements/video.png"
        }
    },
    {
        "_id":"c-5060",
        "_parentId":"b-506",
        "_type":"component",
        "_component":"text",
        "_classes":"",
        "_layout":"right",
        "title":"Tek Video/Slayt Gösterisi",
        "displayTitle":"",
        "instruction":"",
        "body":"<h2>Tek Video</h2>Görüntü, ses ve hareket öğeleri aracılığıyla markanıza hayat verecek tek bir video ile bir reklam oluşturun.<br><br><i>Kreatif</i><br><ul><li>Görsellerinizle hızla dikkat çekin. Daha dikkat çekici içeriklerinizle başlayın ve marka kimliğinizi erken aşamada dahil edin.</li><li>Sessiz oynatıma göre tasarlayın. Mesajınızı iletmeye yardımcı olması için hikayenizi görsel olarak anlatın ve metinler ve grafikler kullanın.</li><li>Görsel hikayeniz için bir çerçeve oluşturun. Farklı çerçeveleri inceleyin ve önemli unsurları vurgulayın.</li><li>Neyin yankı bulduğunu görmek için içeriklerinizde farklı kreatif türlerini ve uzunlukları deneyin.</li></ul><br><br><h2>Slayt Gösterisi</h2>Başa dönen bir video oluşturun.<br><br><i>Kreatif</i><ul><li>Slayt gösterisi kullanırken hikayenizi anlatmak için ihtiyacınız olan bant genişliği genellikle çok daha düşüktür.</li><li>Ürün kataloğunuzdaki ve basılı kampanyalarınızdaki görseller gibi mevcut içeriklerinizi kullanın. En fazla 10 görsel kullanabilirsiniz.</li><li>Mevcut videolarınızdan klipler kullanarak bir slayt gösterisi oluşturun.</li></ul>",
        "_isComplete": false,
        "_pageLevelProgress": {
            "_isEnabled": true
        }
    },
    { 
        "_id":"c-5075",
        "_parentId":"b-509",
        "_type":"component",
        "_component":"text",
        "_classes":"",
        "_layout":"left",
        "title":"Kanvas",
        "displayTitle":"",
        "instruction":"",
        "body":"<h2>Kanvas</h2>Görselleri ve videoyu bir arada kullanarak sürükleyici ve hızlı yüklenen bir deneyim oluşturun. Bir Kanvasta videolar, hareketsiz görseller ve eylem çağrısı düğmeleri bir arada kullanılabilir.<br><br><i>Kreatif</i><ul><li>Güçlü bir açılış yapıp Haber Kaynağı’ndan hedef kitlenizin dikkatini çekin.</li><li>Dikkatlerini çekin ve onları tıklayarak Kanvasın tamamını görüntülemeye teşvik edin.</li><li>Ünlü bir kişiden destek alıyorsanız veya öne çıkarmak istediğiniz ürünleriniz varsa son ana kadar beklemeyin. Hedef kitlenizin dikkatini çekmek için ünlülerin görüntülerini kullanın ve ürünlerinizi Kanvasın başlarında veya ortalarında gösterin. Hedef kitleniz her zaman reklamınızın sonuna kadar gitmiyor olabilir, bu yüzden kreatifinizin ve mesajınızın iletildiğinden emin olun.</li></ul>",
        "_isComplete": false,
        "_pageLevelProgress": {
            "_isEnabled": true
        }
    },
    { 
        "_id":"c-5080",
        "_parentId":"b-509",
        "_type":"component",
        "_component":"framed-video",
        "_classes":"",
        "_layout":"left",
        "title":"",
        "displayTitle":"",
        "body":"",
        "_videoPosition":"top",
        "_videoPt":{"x":"35px","y":"75px"},
        "_componentHeight":"605px",
        "instruction":"",
        "_items": [
            {

                "frame":  "<img src='course/en/videos/blueprint_iphone2.png'/>"
            },
            {
                "video":  "<video controls poster='course/en/videos/blueprint_canvas_poster.png' id='vid' width='250px' controls='controls'><source src='course/en/videos/blueprint_canvas_video.mp4' type='video/mp4'></video>"
            }                       
        ]
    },
    {
            "_id":"c-5990",
            "_parentId":"b-599",
            "_type":"component",
            "_component":"co-jump",
            "_classes":"color-test",
            "_preLinkBody":"Reklamınızı oluşturduktan ve Facebook uygulamalar ve hizmetler ailesinde yayınladıktan sonra, odaklanmanız gereken sıradaki konu ",
            "_linkBody":"Kampanya Performansını Ölçme",
            "_postLinkBody":".",
            "_link":"#/id/co-07",
            "_graphic":"adapt/css/assets/icon_nextPage.png",
            "_pageLevelProgress": {
                "_isEnabled": false
            }
    },
    {
        "_id":"c-6000",
        "_parentId":"b-600",
        "_type":"component",
        "_component":"text",
        "_classes":"",
        "_layout":"full",
        "title":"",
        "displayTitle":"",
        "instruction":"",
        "body":"Kampanyanızı planladığınıza ve yayınladığınıza göre reklamınızın performansını görmeye başlayabilirsiniz. Facebook, sunduğu insanlara dayalı çözümlerle, internetteki pazarlama çalışmaları ve işletme değeri arasında bağlantı kurarak müşteri yolculuğunun tüm aşamalarında pazarlamacıların sonuçları ölçmesine ve işletmelerini büyütmesine yardımcı olabilir. Çözümlerimiz size, hem Facebook’taki hem de Facebook dışındaki reklamlarınızın tüm medya harcamalarınız bağlamında değer getirip getirmediğini görmenize yardımcı olacak netliği sunar.",
        "_isComplete": false,
        "_pageLevelProgress": {
            "_isEnabled": false
        }
    },
    { 
        "_id":"c-6050",
        "_parentId":"b-600",
        "_type":"component",
        "_component":"canvas-animation",
        "_classes":"",
        "_layout":"full",
        "title":"",
        "displayTitle":"",
        "animationName":"Marketo2",
        "animation":"course/en/animations/marketo/marketo2.js",
        "body":"<div id='Marketo2'></div>",
        "_resources": {
         "percentStyle": {"font":"bold 22px freight-sans-pro", "fill": "#4569af", "wordWrap": true, "wordWrapWidth": 300, "align": "center"},
         "footerStyle": {"font":"bold 16px freight-sans-pro", "fill": "#000000", "wordWrap": true, "wordWrapWidth": 180, "align": "center"},           
         "bckg":"course/en/animations/marketo/bluebckg_2.png",
         "toptext": "",
         "clickytext1": "",
            "clickytext2": "",
            "clickytext3": "",
            "ico1text":"HEDEF KİTLE SONUÇLARI",
            "ico1textA":"Hedef kitlelerinize nasıl eriştiğinizi ölçün ve optimize edin",
            "ico2text":"MARKA SONUÇLARI",
            "ico2textA":"Medya harcamalarınızın marka reklam verme amaçlarını nasıl etkilediğini ölçün",
            "ico3text":"SATIŞ SONUÇLARI",
            "ico3textA":"Medya harcamalarınızın satış hedeflerinizi nasıl etkilediğini ölçün",
            "layer3":"course/en/animations/marketo/sales.png",
            "layer2":"course/en/animations/marketo/brand.png",
            "layer1":"course/en/animations/marketo/audience.png"
        },
        "instruction":"",
        "_pageLevelProgress": {
        "_isEnabled": false
        }
    },
    { 
        "_id":"c-6070",
        "_parentId":"b-600",
        "_type":"component",
        "_component":"animate-message",
        "_classes": {"border-radius":"0px"},
        "_layout":"full",
        "title":"",
        "displayTitle":"",
        "body":"",
        "instruction":"",
        "titleAnimation":"transition.slideRightIn",
        "bodyAnimation":"transition.slideRightIn",
        "backgroundColor":"#86aefd,#86aefd,#86aefd",
        "_cornerRadius":"0px",
        "_pageLevelProgress": {
            "_isEnabled": false
        },
        "_disableAnimation":true,
        "_items": [
        {
            "item_title": "",
            "body":"<div style='padding:20px;'><b>Hedef Kitle Sonuçları aşağıdaki gibi soruları cevaplamanıza yardımcı olur:</b><br><ul><li>Reklamlarınız kaç kişiye erişti? Hangi sıklıkla?</li><li>Hedeflenen kişilere/hedef kitleye eriştiler mi?</li><li>İnsanlara tüm cihazlarda eriştiler mi?</li></div>"
        },
        {
            "item_title": "",
            "body":"<div style='padding:20px;'><b>Marka Sonuçları aşağıdaki gibi soruları cevaplamanıza yardımcı olur:</b><br><ul><li>Reklamlar dikkat çekti mi? Akılda kaldılar mı?</li><li>Marka bilinirliği oluşturdular mı?<li>Markanızın algısını değiştirdiler mi?</li></div>"
        },
        {
            "item_title": "",
            "body":"<div style='padding:20px;'><b>Satış Sonuçları aşağıdaki gibi soruları cevaplamanıza yardımcı olur:</b><br><ul><li>Reklamlar istediğiniz işletme sonuçlarını getirdi mi? Yatırım getirisine katkıda bulundular mı?</li><li>Satışlar, potansiyel müşteriler ve uygulama yüklemeleriyle sonuçlandılar mı?</li></div>"
        }
        ]
    },
    {
        "_id":"c-6080",
        "_parentId":"b-600",
        "_type":"component",
        "_component":"text",
        "_classes":"",
        "_layout":"full",
        "title":"",
        "displayTitle":"",
        "body":"Şimdi yukarıdaki sonuçları ölçmek için kullanabileceğiniz çözümleri gözden geçirelim.",
        "instruction":"",
        "_isComplete": false,
        "_pageLevelProgress": {
            "_isEnabled": false
        }
    },
    {
        "_id":"c-6085",
        "_parentId":"b-607",
        "_type":"component",
        "_component":"text",
        "_classes":"",
        "_layout":"full",
        "title":"Hedef Kitle Sonuçları",
        "displayTitle":"Hedef Kitle Sonuçları",
        "body":"<b>Facebook reklam raporları:</b> Facebook, Instagram ve Audience Network’te sunulan reklamlarda insanlara dayalı ölçümler yapmak için Facebook reklam raporlarını kullanın. Sizin için en önemli reklam ölçümlerini görmek ve işletme hedeflerinize yönelik performansınızı öğrenmek için Reklam Yöneticisi, Power Editor ve Reklam İstatistikleri API’si yoluyla raporlar oluşturun ve dışa aktarın.<hr><b>A/B testleri:</b> Reklamlarınızın farklı özelliklerinin Facebook, Instagram ve Audience Network’te kampanya performansını nasıl etkilediğini anlamak istiyorsanız bir A/B testi yapmayı deneyin. Bu test size şu imkanı sağlar:<br><br><ul><li>Hedef kitle çakışması olmayan kontrollü A/B testleri yapın.</li><li>Net, tek değişkenli testler oluşturun.</li><li>Sonuçları kolayca ölçün ve reklam performansını optimize edin.</li></ul><hr><b>Hedef Kitle İstatistikleri:</b> Hedef Kitle İstatistikleri ile, hedef kitlenizin demografik özellikleri, yaşam tarzı, ilgi alanları ve satın alma davranışları da dahil olmak üzere, Facebook’taki hedef kitleniz hakkında daha fazla bilgi alın. Daha alakalı içerikler oluşturabilmek için, hedef kitlenizin kendine has özelliklerini öğrenin.<hr><b>Erişim raporları:</b> Bu raporlar reklamınızın kaç kişiye eriştiğini, bu kişilere farklı cihazlarda ne sıklıkta erişildiğini ve kampanyanızın özel erişimine her bir yayıncının ne oranda katkıda bulunduğunu ölçme olanağı sunar. <hr><b>Nielsen Digital Ad Ratings (DAR - Dijital Reklam Puanları) ve Nielsen Total Ad Ratings (TAR - Toplam Reklam Puanları):</b> Nielsen DAR ve TAR ile internet ve TV kampanyalarında erişilen hedef kitleleri ölçün ve karşılaştırın.<hr><b>Görüntülenebilirlik ve doğrulama ortakları:</b> Görüntülenebilirlik ortaklarımızla beraber çalışarak Facebook ve Instagram envanterine ilişkin görüntülenebilirlik ve dikkat için ölçüm ve doğrulama yapın.",
        "instruction":"",
        "_isComplete": false,
        "_pageLevelProgress": {
            "_isEnabled": true
        }
    },
    {
        "_id":"c-6095",
        "_parentId":"b-608",
        "_type":"component",
        "_component":"text",
        "_classes":"",
        "_layout":"full",
        "title":"Marka Sonuçları",
        "displayTitle":"Marka Sonuçları",
        "body":"<b>Marka Yükselişi:</b> Facebook Marka Yükselişini kullanarak veya ortaklarımız Nielsen ve Millward Brown ile çalışarak reklamlarınızın markanız üzerindeki etkisini daha doğru şekilde ölçün. Her üç çözüm de, reklamlarınızı gören hedef kitle ile reklamlarınızı görmeyen bir kontrol grubunun anket yanıtlarını karşılaştıran aynı deneysel metodolojiye dayanır.<hr><b>Tahmini Reklam Hatırlanırlığı Yükselişi (kişiler):</b> Örnek bir gruba önce bir reklamın gösterildiği, sonra da reklamı hatırlayıp hatırlamadıklarının sorulduğu bir reklam etki ölçümü olan Tahmini Reklam Hatırlanırlığı Yükselişi (kişiler) ile Facebook, Instagram ve Audience Network’te yayınlanan reklamlarınızın sonuçlarını ölçün.",
        "instruction":"",
        "_isComplete": false,
        "_pageLevelProgress": {
            "_isEnabled": true
        }
    },
    {
        "_id":"c-6100",
        "_parentId":"b-609",
        "_type":"component",
        "_component":"text",
        "_classes":"",
        "_layout":"full",
        "title":"Satış Sonuçları",
        "displayTitle":"Satış Sonuçları",
        "body":"<b>Facebook dönüşüm raporları:</b> Facebook, Instagram ve Audience Network’te sunulan reklamlarda insanlara dayalı ölçümlere göre çevrimiçi ve çevrimdışı dönüşümleri ölçmek için Facebook dönüşüm raporlarını kullanın. Sizin için en önemli reklam ölçümlerini görmek ve işletme hedeflerinize yönelik performansınızı öğrenmek için raporlar oluşturun ve dışa aktarın.<hr><b>Facebook Dönüşüm Yükselişi:</b> Facebook Dönüşüm Yükselişi, Facebook reklamlarının eriştiğiniz kişiler üzerindeki gerçek etkisini ölçmenizi sağlar. Dönüşüm Yükselişini kullanarak farklı cihazlarda Facebook reklamlarıyla eriştiğiniz kişilerden çevrimiçi, çevrimdışı veya mobil uygulamanızda elde ettiğiniz ilave iş hacmini belirleyebilirsiniz.<hr><b>Ortak Yükselişi:</b> Facebook’un Ortak Yükselişi Entegrasyonları size aşağıdakilerden birini sunabilir:<br><br><ol><li>Üçüncü taraf veri ortamları üzerinde barındırılan birinci taraf verilerinizi kullanarak yükseliş ölçümü ve kullanmaya başlamak için Facebook yükseliş platformunun kullanımı.</li><li>Market ve perakende işlem verilerinin kullanımı için yükseliş ölçümü; öncelikle hızlı tüketim malları (CPG) markalarına yöneliktir.</li></ol><hr><b>İlişkilendirme:</b> İlişkilendirme, kampanyalarınızın tüm dijital medya harcamalarınız kapsamında nasıl çevrimiçi, çevrimdışı ve çapraz cihaz dönüşümleri sağladığını anlamanıza yardımcı olmak için kurala dayalı ilişkilendirme ve sonuç odaklı birden çok temas noktasıyla ilişkilendirme sunar.<hr><b>İlişkilendirme Kontrolü:</b> İlişkilendirme Kontrolü, bir ilişkilendirme raporuna Facebook gösterim ve tıklamalarının eklenmesi halinde ilişkilendirme sonuçlarınızın nasıl şekilleneceğini görmenizi sağlar.<hr><b>Birden çok temas noktasıyla ilişkilendirme (MTA) ortakları:</b> Facebook, kendisi de dahil tüm yayıncılarda insanlara dayalı MTA raporları sağlamak için MTA ortaklarıyla çalışma olanağı sunar. Site ve mobilde farklı yayıncılardaki yatırım getirisini daha iyi anlayın ve tüm medya ve kanallarda daha doğru yatırım kararları alın.<hr><b>Pazarlama Karması Modellemesi (MMM) Ortakları:</b> Facebook, pazarlama kanallarınızın satışlara, verimliliğe ve yatırım getirisine katkısı açısından etkisini daha iyi ölçmek ve karşılaştırmak için ortaklarla çalışma olanağı sunar.<hr><b>Mobil Ölçüm Ortakları (MMP):</b> Facebook’un MMP’leriyle çalışmak, Facebook mobil uygulama reklam kampanyalarınızı daha doğru biçimde ölçmeye yardımcı olarak Facebook’un uygulamanız için başka reklam ağlarına kıyasla nasıl yüklemeler ve gelir sağladığını anlamanızı kolaylaştırabilir.",
        "instruction":"",
        "_isComplete": false,
        "_pageLevelProgress": {
            "_isEnabled": true
        }
    },
    {
            "_id":"c-6990",
            "_parentId":"b-699",
            "_type":"component",
            "_component":"co-jump",
            "_classes":"color-test",
            "_preLinkBody":"Bu kursta oldukça fazla konuya değindik. Şimdi hızlı bir özetle bunların üzerinden geçelim ",
            "_linkBody":"Bilgi Kontrolü",
            "_postLinkBody":".",
            "_link":"#/id/co-08",
            "_graphic":"adapt/css/assets/icon_nextPage.png",
            "_pageLevelProgress": {
                "_isEnabled": false
            }
    },
    {
      "_id":"c-7000",
      "_parentId":"b-700",
      "_type":"component",
      "_component":"mcq",
      "_classes":"",
      "_layout":"full",
      "_attempts":1,
      "_shouldDisplayAttempts": false,
      "_questionWeight":1,
      "_isRandom":false,
      "_selectable":1,
      "_setCompletionOn":"inview",
      "_isResetOnRevisit":true,
      "_canShowModelAnswer": true,
      "_recordInteraction":true,
      "title": "Soru 1/4",
      "displayTitle": "Soru 1/4",
      "body": "İşletmelerin sitelerini ziyaret eden, uygulamalarını yükleyen veya ürünlerini satın alan kişiler hakkında bilgi toplamak için ne yapması gerekir?",
      "instruction": "",
      "_items": [
        {
          "text": "Özel Hedef Kitleler oluşturma",
          "_shouldBeSelected":false
        },
        {
          "text": "Facebook pikselini ve/veya SDK’yi kullanıma alma",
          "_shouldBeSelected":true
        },
        {
          "text": "Bir ürün kataloğu oluşturma",
          "_shouldBeSelected":false
        },
        {
          "text": "Business Manager’da Facebook konumlarını ayarlama",
          "_shouldBeSelected":false
        }
      ],
      "_feedback":{
        "correct":"Doğru! Piksel ve SDK, internet sitenize ve mobil uygulamanıza eklenen kod parçalarıdır ve reklam kampanyanız için ölçüm, optimizasyon ve hedef kitle oluşturma işlemleri gerçekleştirmenizi sağlar.",
        "_incorrect": {
          "notFinal": "",
          "final": "Üzgünüz, doğru cevap bu değil. Piksel ve SDK, internet sitenize ve mobil uygulamanıza eklenen kod parçalarıdır ve reklam kampanyanız için ölçüm, optimizasyon ve hedef kitle oluşturma işlemleri gerçekleştirmenizi sağlar."
        },
        "_partlyCorrect": {
          "notFinal": "",
          "final": "Piksel ve SDK, internet sitenize ve mobil uygulamanıza eklenen kod parçalarıdır ve reklam kampanyanız için ölçüm, optimizasyon ve hedef kitle oluşturma işlemleri gerçekleştirmenizi sağlar."
        }
      },
      "_buttons": {
        "_submit": {
          "buttonText": "Gönder",
          "ariaLabel": "Cevabınızı göndermek için buraya tıklayın."
        },
        "_reset": {
          "buttonText": "Sıfırla",
          "ariaLabel": ""
        },
        "_showCorrectAnswer": {
          "buttonText": "Doğru Cevap",
          "ariaLabel": ""
        },
        "_hideCorrectAnswer": {
          "buttonText": "Benim Cevabım",
          "ariaLabel": ""
        },
        "_showFeedback": {
          "buttonText": "Geribildirimi göster",
          "ariaLabel": ""
        },
        "remainingAttemptsText": "deneme kaldı",
        "remainingAttemptText": "son deneme"
      },
      "_pageLevelProgress": {
        "_isEnabled": true
       }
    },
    {
          "_id":"c-7010",
          "_parentId":"b-705",
          "_type":"component",
          "_component":"mcq",
          "_classes":"",
          "_layout":"full",
          "_attempts":1,
          "_shouldDisplayAttempts": false,
          "_questionWeight":1,
          "_isRandom":false,
          "_selectable":1,
          "_setCompletionOn":"inview",
          "_isResetOnRevisit":true,
          "_canShowModelAnswer": true,
          "_recordInteraction":true,
          "title": "Soru 2/4",
          "displayTitle": "Soru 2/4",
          "body": "Facebook hangi reklamların gösterilmesi gerektiğini belirlerken hangi faktörleri göz önünde bulundurur?",
          "instruction": "",
          "_items": [
            {
              "text": "Reklamverenin teklifi x Alaka Düzeyi",
              "_shouldBeSelected":false
            },
            {
              "text": "Reklamverenin teklifi + Tahmini eylem oranları + Alaka düzeyi ve kalite",
              "_shouldBeSelected":false
            },
            {
              "text": "Reklamverenin teklifi x Tahmini eylem oranları x Alaka düzeyi ve kalite",
              "_shouldBeSelected":false
            },
            {
              "text": "Reklamverenin teklifi x Tahmini eylem oranları + Alaka düzeyi ve kalite",
              "_shouldBeSelected":true
            }
          ],
          "_feedback":{
            "correct":"Doğru! Reklam açık artırması hangi reklamların gösterileceğini belirler, böylece reklamverenler içeriklerine yanıt verme olasılığı daha yüksek hedef kitlelere erişebilir. Reklam açık artırması çeşitli faktörleri dikkate alır:<br><ul><li>Sizin teklifiniz (manuel veya otomatik teklif)</li><li>Tahmini eylem oranları (istenen bir sonucu elde etme olasılığı)</li><li>Alaka düzeyi ve kalite (internet sitesi performansı, reklam kalitesi, reklamınızın hedef kitlenizle alaka düzeyi)</li></ul>",
            "_incorrect": {
              "notFinal": "",
              "final": "Üzgünüz, doğru cevap bu değil. Reklam açık artırması hangi reklamların gösterileceğini belirler, böylece reklamverenler içeriklerine yanıt verme olasılığı daha yüksek hedef kitlelere erişebilir. Reklam açık artırması çeşitli faktörleri dikkate alır:<br><ul><li>Sizin teklifiniz (manuel veya otomatik teklif)</li><li>Tahmini eylem oranları (istenen bir sonucu elde etme olasılığı)</li><li>Alaka düzeyi ve kalite (internet sitesi performansı, reklam kalitesi, reklamınızın hedef kitlenizle alaka düzeyi)</li></ul>"
            },
            "_partlyCorrect": {
              "notFinal": "",
              "final": "Reklam açık artırması hangi reklamların gösterileceğini belirler, böylece reklamverenler içeriklerine yanıt verme olasılığı daha yüksek hedef kitlelere erişebilir. Reklam açık artırması çeşitli faktörleri dikkate alır:<br><ul><li>Sizin teklifiniz (manuel veya otomatik teklif)</li><li>Tahmini eylem oranları (istenen bir sonucu elde etme olasılığı)</li><li>Alaka düzeyi ve kalite (internet sitesi performansı, reklam kalitesi, reklamınızın hedef kitlenizle alaka düzeyi)</li></ul>"
            }
          },
          "_buttons": {
            "_submit": {
              "buttonText": "Gönder",
              "ariaLabel": "Cevabınızı göndermek için buraya tıklayın."
            },
            "_reset": {
              "buttonText": "Sıfırla",
              "ariaLabel": ""
            },
            "_showCorrectAnswer": {
              "buttonText": "Doğru Cevap",
              "ariaLabel": ""
            },
            "_hideCorrectAnswer": {
              "buttonText": "Benim Cevabım",
              "ariaLabel": ""
            },
            "_showFeedback": {
              "buttonText": "Geribildirimi göster",
              "ariaLabel": ""
            },
            "remainingAttemptsText": "deneme kaldı",
            "remainingAttemptText": "son deneme"
          },
          "_pageLevelProgress": {
            "_isEnabled": true
           }
        },
        {
      "_id":"c-7015",
      "_parentId":"b-710",
      "_type":"component",
      "_component":"mcq",
      "_classes":"",
      "_layout":"full",
      "_attempts":1,
      "_setCompletionOn":"inview",
      "_shouldDisplayAttempts": false,
      "_questionWeight":1,
      "_isRandom":false,
      "_selectable":2,
      "_isResetOnRevisit":true,
      "_canShowModelAnswer": true,
      "_recordInteraction":true,
      "title": "Soru 3/4",
      "displayTitle": "Soru 3/4",
      "body": "İşletmelerin hedef kitlelerini seçerken aşağıdakilerden hangilerini yapmaları tavsiye edilir? (İki seçim yapın)",
      "instruction": "",
      "_items": [
        {
          "text": "İlgi alanı ve/veya davranışa dayalı hedefleme kategorilerini kullanma",
          "_shouldBeSelected":true
        },
        {
          "text": "Özel Hedef Kitleleri kullanarak internet sitesi ziyaretçilerini veya mevcut müşterileri yeniden hedefleme",
          "_shouldBeSelected":true
        },
        {
          "text": "Hedef kitleleri en az %50 oranında çakıştırmaya çalışma",
          "_shouldBeSelected":false
        },
        {
          "text": "Hedef kitleyi mümkün olduğu kadar belirli ve küçük tutma",
          "_shouldBeSelected":false
        }
      ],
      "_feedback":{
        "correct":"Doğru! İşletmelerin ilgi alanı veya davranışa dayalı hedefleme kategorilerini kullanmalarını ve Özel Hedef Kitleleri kullanarak internet sitesi ziyaretçilerini ya da mevcut müşterilerini yeniden hedeflemelerini tavsiye ediyoruz.",
        "_incorrect": {
          "notFinal": "",
          "final": "Üzgünüz, doğru cevap bu değil. İşletmelerin ilgi alanı veya davranışa dayalı hedefleme kategorilerini kullanmalarını ve Özel Hedef Kitleleri kullanarak internet sitesi ziyaretçilerini ya da mevcut müşterilerini yeniden hedeflemelerini tavsiye ediyoruz."
        },
        "_partlyCorrect": {
          "notFinal": "",
          "final": "İşletmelerin ilgi alanı veya davranışa dayalı hedefleme kategorilerini kullanmalarını ve Özel Hedef Kitleleri kullanarak internet sitesi ziyaretçilerini ya da mevcut müşterilerini yeniden hedeflemelerini tavsiye ediyoruz."
        }
      },
      "_buttons": {
        "_submit": {
          "buttonText": "Gönder",
          "ariaLabel": "Cevabınızı göndermek için buraya tıklayın."
        },
        "_reset": {
          "buttonText": "Sıfırla",
          "ariaLabel": ""
        },
        "_showCorrectAnswer": {
          "buttonText": "Doğru Cevap",
          "ariaLabel": ""
        },
        "_hideCorrectAnswer": {
          "buttonText": "Benim Cevabım",
          "ariaLabel": ""
        },
        "_showFeedback": {
          "buttonText": "Geribildirimi göster",
          "ariaLabel": ""
        },
        "remainingAttemptsText": "deneme kaldı",
        "remainingAttemptText": "son deneme"
      },
      "_pageLevelProgress": {
        "_isEnabled": true
       }
    },
    {
      "_id":"c-7020",
      "_parentId":"b-715",
      "_type":"component",
      "_component":"mcq",
      "_classes":"",
      "_layout":"full",
      "_attempts":1,
      "_setCompletionOn":"inview",
      "_shouldDisplayAttempts": false,
      "_questionWeight":1,
      "_isRandom":false,
      "_selectable":2,
      "_isResetOnRevisit":true,
      "_canShowModelAnswer": true,
      "_recordInteraction":true,
      "title": "Soru 4/4",
      "displayTitle": "Soru 4/4",
      "body": "Aşağıdakilerden hangileri kampanyalarının satış sonuçlarını ölçmek isteyen işletmeler için tavsiye edilen çözümlerdir? (İki seçim yapın)",
      "instruction": "",
      "_items": [
        {
          "text": "Marka Yükselişi",
          "_shouldBeSelected":false
        },
        {
          "text": "Facebook Dönüşüm Yükselişi",
          "_shouldBeSelected":true
        },
        {
          "text": "İlişkilendirme",
          "_shouldBeSelected":true
        },
        {
          "text": "Nielsen Dijital Reklam Puanları (DAR)",
          "_shouldBeSelected":false
        }
      ],
      "_feedback":{
        "correct":"Doğru! Reklamlarının yatırım getirisine katkı sağlayıp sağlamadığını veya satışlar, potansiyel müşteriler veya uygulama yüklemeleriyle sonuçlanıp sonuçlanmadığını öğrenmek isteyen işletmeler için Facebook Dönüşüm Yükselişi ve İlişkilendirme araçlarını tavsiye ediyoruz.",
        "_incorrect": {
          "notFinal": "",
          "final": "Üzgünüz, doğru cevap bu değil. Reklamlarının yatırım getirisine katkı sağlayıp sağlamadığını veya satışlar, potansiyel müşteriler veya uygulama yüklemeleriyle sonuçlanıp sonuçlanmadığını öğrenmek isteyen işletmeler için Facebook Dönüşüm Yükselişi ve İlişkilendirme araçlarını tavsiye ediyoruz."
        },
        "_partlyCorrect": {
          "notFinal": "",
          "final": "Reklamlarının yatırım getirisine katkı sağlayıp sağlamadığını veya satışlar, potansiyel müşteriler veya uygulama yüklemeleriyle sonuçlanıp sonuçlanmadığını öğrenmek isteyen işletmeler için Facebook Dönüşüm Yükselişi ve İlişkilendirme araçlarını tavsiye ediyoruz."
        }
      },
      "_buttons": {
        "_submit": {
          "buttonText": "Gönder",
          "ariaLabel": "Cevabınızı göndermek için buraya tıklayın."
        },
        "_reset": {
          "buttonText": "Sıfırla",
          "ariaLabel": ""
        },
        "_showCorrectAnswer": {
          "buttonText": "Doğru Cevap",
          "ariaLabel": ""
        },
        "_hideCorrectAnswer": {
          "buttonText": "Benim Cevabım",
          "ariaLabel": ""
        },
        "_showFeedback": {
          "buttonText": "Geribildirimi göster",
          "ariaLabel": ""
        },
        "remainingAttemptsText": "deneme kaldı",
        "remainingAttemptText": "son deneme"
      },
      "_pageLevelProgress": {
        "_isEnabled": true
       }
    },
    {
                "_id":"c-7990",
                "_parentId":"b-799",
                "_type":"component",
                "_component":"co-jump",
                "_classes":"color-test",
                "_autoComplete":true,
                "_preLinkBody":"Bu kursu bitirmek için aşağıdaki düğmeye tıklayın. Not: Tüm modüller için durum çubuklarının tamamlandığından emin olmak için <a href='#'>buraya tıklayın</a>.<br>",
                "_linkBody":"<div style = 'text-align:center;padding:8px;'><button class='buttons-action'><b>BU KURSU BİTİRDİM</b></button></div><br> ",
                "_postLinkBody":"",
                "_link":"",
                "_pageLevelProgress": {
                    "_isEnabled": false
        }
    }
]