﻿[
    {
        "_id": "co-01",
        "_parentId": "course",
        "_type": "page",
        "_graphic": {
            "alt": "",
            "src": "course/en/images/00_contentObjects/landing_1.jpg"
        },
        "_classes": "",
        "displayTitle": "Giriş",
        "title": "Giriş",
        "body": "İnternette, mağazalarda ve mobil uygulamanızda eylemleri nasıl artıracağınızı öğrenin.",
        "linkText":"Görüntüle",
        "height":"570",
        "durationLabel": "Süre:",
        "duration": "2 dk",
        "_pageLevelProgress": {
            "_isEnabled": true
        }
    },
    {
        "_id": "co-02",
        "_parentId": "course",
        "_type": "page",
        "_graphic": {
            "alt": "",
            "src": "course/en/images/00_contentObjects/landing_2.png"
        },
        "_classes": "",
        "displayTitle": "Kullanmaya Başlama",
        "title": "Kullanmaya Başlama",
        "body": "Kampanya planlaması sırasında kendinize hangi soruları sormalısınız?",
        "linkText":"Görüntüle",
        "height":"570",
        "durationLabel": "Süre:",
        "duration": "3 dk",
        "_pageLevelProgress": {
            "_isEnabled": true
        }
    },
    {
        "_id": "co-03",
        "_parentId": "course",
        "_type": "page",
        "_graphic": {
            "alt": "",
            "src": "course/en/images/00_contentObjects/landing_3.png"
        },
        "_classes": "",
        "displayTitle": "Reklam Satın Alma Türlerine Genel Bakış",
        "title": "Reklam Satın Alma Türlerine Genel Bakış",
        "body": "Reklam açık artırmamızın nasıl çalıştığını görün ve erişim ve sıklık satın alma ve TRP satın alma yöntemleri hakkında bilgi edinin.",
        "linkText":"Görüntüle",
        "height":"570",
        "durationLabel": "Süre:",
        "duration": "5 dk",
        "_pageLevelProgress": {
            "_isEnabled": true
        }
    },
    {
        "_id": "co-04",
        "_parentId": "course",
        "_type": "page",
        "_graphic": {
            "alt": "",
            "src": "course/en/images/00_contentObjects/landing_4.png"
        },
        "_classes": "",
        "displayTitle": "Doğru Reklam Verme Amacını Seçme",
        "title": "Doğru Reklam Verme Amacını Seçme",
        "body": "İşletme hedeflerinizi Facebook’un reklam verme amaçlarıyla nasıl eşleştireceğinizi öğrenin.",
         "linkText":"Görüntüle",
        "height":"570",
        "durationLabel": "Süre:",
        "duration": "2 dk",
        "_pageLevelProgress": {
            "_isEnabled": true
        }
    },
    {
        "_id": "co-05",
        "_parentId": "course",
        "_type": "page",
        "_graphic": {
            "alt": "",
            "src": "course/en/images/00_contentObjects/landing_5.png"
        }, 
        "_classes": "",
        "displayTitle": "Doğru Kişileri Hedefleme",
        "title": "Doğru Kişileri Hedefleme",
        "body": "Hedefleme çözümlerinizin gücünü ve hedefleme hassasiyetini görün.",
        "linkText":"Görüntüle",
        "height":"570",
        "durationLabel": "Süre:",
        "duration": "5 dk",
        "_pageLevelProgress": {
            "_isEnabled": true
        }
    },
    {
        "_id": "co-06",
        "_parentId": "course",
        "_type": "page",
        "_graphic": {
            "alt": "",
            "src": "course/en/images/00_contentObjects/landing_6.png"
        },
        "_classes": "",
        "displayTitle": "Reklam Alanlarını, Formatları ve Kreatifi Seçme",
        "title": "Reklam Alanlarını, Formatları ve Kreatifi Seçme",
        "body": "İlham alın ve kreatifler için çeşitli reklam verme amaçlarına yönelik en iyi uygulamaları öğrenin.",
                "linkText":"Görüntüle",
        "height":"570",
        "durationLabel": "Süre:",
        "duration": "4 dk",
        "_pageLevelProgress": {
            "_isEnabled": true
        }
    },
    {
        "_id": "co-07",
        "_parentId": "course",
        "_type": "page",
        "_graphic": {
            "alt": "",
            "src": "course/en/images/00_contentObjects/landing_7.png"
        },
        "_classes": "",
        "displayTitle": "Kampanya Performansını Ölçme",
        "title": "Kampanya Performansını Ölçme",
        "body": "Ölçüm araçlarımızı ve işletme hedeflerinize ve KPI’larınıza en uygun aracı nasıl seçebileceğiniz üzerine ipuçları paylaşacağız.",
                "linkText":"Görüntüle",
        "height":"570",
        "durationLabel": "Süre:",
        "duration": "5 dk",
        "_pageLevelProgress": {
            "_isEnabled": true
        }
    },
    {
        "_id": "co-08",
        "_parentId": "course",
        "_type": "page",
        "_graphic": {
            "alt": "",
            "src": "course/en/images/00_contentObjects/landing_8.png"
        },
        "_classes": "",
        "displayTitle": "Bilgi Kontrolü",
        "title": "Bilgi Kontrolü",
        "body": "Bu kursta oldukça fazla konuya değindik. Şimdi hızlı bir özetle bunların üzerinden geçelim.",
                "linkText":"Görüntüle",
        "height":"570",
        "durationLabel": "Süre:",
        "duration": "4 dk",
        "_pageLevelProgress": {
            "_isEnabled": true
        }
    }
]